'Beck Junior A','TQBA 2010 Kickoff Tournament','IS-97A',2010-10-02,9.48,0.444444,6.0,0.888889,6.10,0.0222222,0.255556,0.0166667,81.6467
'Beck Junior A','TQBA Spartan Showdown','IS-99A',2010-11-13,9.79,0.714286,6.14286,0.714286,8.70,0.0142857,0.214286,0.0142857,92.4261
'Beck Junior B','TQBA 2010 Kickoff Tournament','IS-97A',2010-10-02,9.91,0.25,6.5,0.5,6.91,0.00625,0.20625,0.01875,88.4992
'Beck Junior B','TQBA Spartan Showdown','IS-99A',2010-11-13,11.28,0.428571,6.28571,1.28571,10.73,0.0142857,0.242857,0.114286,82.4433
'Beck Junior C','TQBA 2010 Kickoff Tournament','IS-97A',2010-10-02,9.79,0.285714,3.14286,0.571429,13.55,0.0214286,0.307143,0.0142857,37.2749
'Beck Junior C','TQBA Spartan Showdown','IS-99A',2010-11-13,10.70,0.25,5.125,1.125,9.77,0.025,0.31875,0.03125,61.5361
'Beck Junior D','TQBA 2010 Kickoff Tournament','IS-97A',2010-10-02,4.57,0.125,2.75,0.375,10.45,0.025,0.3875,0.0125,29.5792
'Beck Junior D','TQBA Spartan Showdown','IS-99A',2010-11-13,7.27,0.166667,3.5,0.5,11.88,0.025,0.366667,0.025,40.0164
'Beck Junior E','TQBA Spartan Showdown','IS-99A',2010-11-13,7.60,0.0,3.57143,0.571429,10.02,0.0285714,0.35,0.0428571,37.315
'Beckendorff Junior A','TQBA 2010 Kickoff Tournament','IS-97A',2010-10-02,0.00,0.0,0.714286,0.0,8.29,0.0,0.35,0.0142857,7.26753
'Beckendorff Junior A','TQBA Spartan Showdown','IS-99A',2010-11-13,4.29,0.0,1.16667,0.166667,11.23,0.025,0.316667,0.05,11.3577
'Beckendorff Junior B','TQBA Spartan Showdown','IS-99A',2010-11-13,4.29,0.166667,2.16667,0.166667,7.97,0.025,0.3,0.05,24.836
'Beckendorff Junior C','TQBA Spartan Showdown','IS-99A',2010-11-13,4.44,0.0,1.5,0.666667,9.15,0.0583333,0.366667,0.00833333,12.4291
'Kealing Middle A','TQBA 2010 Kickoff Tournament','IS-97A',2010-10-02,17.52,2.5,10.625,0.75,9.00,0.0125,0.125,0.0375,263.504
'Kealing Middle A','TQBA Spartan Showdown','IS-99A',2010-11-13,17.39,1.8,9.5,1.0,11.80,0.015,0.185,0.02,184.213
'Kealing Middle B','TQBA 2010 Kickoff Tournament','IS-97A',2010-10-02,16.49,1.22222,11.1111,0.444444,8.52,0.00555556,0.15,0.0166667,205.52
'Kealing Middle B','TQBA Spartan Showdown','IS-99A',2010-11-13,17.77,1.7,10.4,0.1,10.30,0.025,0.155,0.04,215.856
'Kealing Middle C','TQBA 2010 Kickoff Tournament','IS-97A',2010-10-02,10.19,0.125,6.5,0.5,9.47,0.025,0.18125,0.025,84.0311
'Kealing Middle C','TQBA Spartan Showdown','IS-99A',2010-11-13,9.50,0.555556,7.22222,0.444444,8.75,0.0444444,0.177778,0.0166667,107.395
'Kealing Middle D','TQBA 2010 Kickoff Tournament','IS-97A',2010-10-02,5.17,0.0,4.14286,0.571429,7.05,0.0142857,0.292857,0.0357143,45.5003
'Kealing Middle D','TQBA Spartan Showdown','IS-99A',2010-11-13,9.02,0.142857,5.71429,0.142857,12.76,0.00714286,0.242857,0.00714286,73.6199
'Kealing Middle E','TQBA Spartan Showdown','IS-99A',2010-11-13,7.50,0.714286,4.42857,0.285714,12.04,0.0428571,0.328571,0.0142857,65.6456
'McMeans Junior A','TQBA 2010 Kickoff Tournament','IS-97A',2010-10-02,13.65,0.125,6.375,0.5,14.17,0.0375,0.25625,0.0375,66.0824
'McMeans Junior A','TQBA Spartan Showdown','IS-99A',2010-11-13,12.41,0.75,6.5,0.375,11.20,0.0625,0.25,0.01875,109.377
'McMeans Junior B','TQBA 2010 Kickoff Tournament','IS-97A',2010-10-02,10.71,0.142857,1.85714,0.285714,10.76,0.0214286,0.471429,0.00714286,20.3756
'McMeans Junior B','TQBA Spartan Showdown','IS-99A',2010-11-13,10.39,0.125,6.25,0.75,6.67,0.01875,0.2375,0.05,85.8903
'McMeans Junior C','TQBA 2010 Kickoff Tournament','IS-97A',2010-10-02,5.38,0.142857,3.57143,0.857143,5.69,0.00714286,0.271429,0.0142857,38.7711
'McMeans Junior C','TQBA Spartan Showdown','IS-99A',2010-11-13,3.75,0.333333,2.33333,0.166667,7.94,0.00833333,0.358333,0.05,36.3961
'McMeans Junior D','TQBA 2010 Kickoff Tournament','IS-97A',2010-10-02,11.61,0.142857,7.85714,0.0,7.73,0.0,0.171429,0.0428571,93.219
'McMeans Junior E','TQBA 2010 Kickoff Tournament','IS-97A',2010-10-02,8.80,0.428571,3.14286,0.571429,10.30,0.0214286,0.392857,0.0428571,39.741
'Presbyterian A','TQBA 2010 Kickoff Tournament','IS-97A',2010-10-02,7.78,0.428571,6.0,0.571429,5.68,0.00714286,0.171429,0.0285714,81.556
'Presbyterian A','TQBA Spartan Showdown','IS-99A',2010-11-13,10.80,1.0,7.0,1.28571,8.87,0.0285714,0.214286,0.0357143,108.12
'Presbyterian B','TQBA 2010 Kickoff Tournament','IS-97A',2010-10-02,8.24,0.125,6.25,0.375,11.28,0.05,0.25,0.03125,78.9041
'Presbyterian B','TQBA Spartan Showdown','IS-99A',2010-11-13,11.11,0.142857,3.71429,0.571429,10.08,0.0285714,0.214286,0.0785714,41.803
'Presbyterian C','TQBA 2010 Kickoff Tournament','IS-97A',2010-10-02,9.02,0.0,5.125,1.0,10.34,0.01875,0.2375,0.025,50.7529
'Presbyterian C','TQBA Spartan Showdown','IS-99A',2010-11-13,8.38,0.625,4.0,0.875,10.24,0.025,0.30625,0.0375,50.4471
'St. Theresa's A','TQBA Spartan Showdown','IS-99A',2010-11-13,13.21,0.777778,5.44444,3.22222,13.44,0.0333333,0.322222,0.05,64.5429
'St. Theresa's B','TQBA Spartan Showdown','IS-99A',2010-11-13,5.56,0.0,1.5,0.0,11.21,0.00833333,0.325,0.0166667,15.4042
'Village A','TQBA Spartan Showdown','IS-99A',2010-11-13,10.31,0.285714,6.71429,0.714286,12.37,0.0357143,0.235714,0.0357143,75.7188
'West Memorial Junior A','TQBA 2010 Kickoff Tournament','IS-97A',2010-10-02,5.79,0.285714,2.42857,0.285714,6.11,0.0142857,0.25,0.0357143,29.6558
'West Memorial Junior B','TQBA 2010 Kickoff Tournament','IS-97A',2010-10-02,6.84,0.0,2.71429,0.142857,12.48,0.0428571,0.321429,0.0142857,29.1286
