'Alfred G. Waters A','Great Valley Middle School Quiz Bowl Tournament','MS-11',2014-12-06,19.92,4.9,7.2,1.7,17.16,0.115,0.18,0.055,256.89
'Alfred G. Waters B','Great Valley Middle School Quiz Bowl Tournament','MS-11',2014-12-06,16.67,0.7,6.5,0.9,18.02,0.08,0.4,0.08,98.5011
'Alfred G. Waters C','Great Valley Middle School Quiz Bowl Tournament','MS-11',2014-12-06,8.22,1.0,3.5,2.5,16.49,0.09,0.425,0.105,43.8191
'All Saints A','Detroit Catholic Central Middle School Fall Tournament','MS-11',2014-11-01,10.58,0.625,6.875,0.375,9.95,0.05,0.33125,0.06875,170.76
'All Saints A','Charter Middle School Challenge','MS-06',2013-03-02,8.75,1.0,3.0,1.0,17.37,0.125,0.525,0.1,65.9024
'All Saints A','2nd Annual Detroit Catholic Central Middle School Tournament','MS-06',2013-03-09,16.16,1.125,7.5,1.25,13.45,0.0625,0.325,0.06875,222.197
'All Saints A','The Blessed Angela Quiz Tournament','MS-04',2013-03-16,18.45,1.40127,9.29936,2.16561,13.77,0.0828025,0.305732,0.0636943,261.294
'All Saints B','Detroit Catholic Central Middle School Fall Tournament','MS-11',2014-11-01,16.38,2.55556,8.33333,0.555556,18.38,0.0777778,0.188889,0.0666667,338.647
'All Saints B','Charter Middle School Challenge','MS-06',2013-03-02,19.77,1.85714,7.28571,2.0,18.78,0.1,0.321429,0.0285714,150.059
'All Saints B','2nd Annual Detroit Catholic Central Middle School Tournament','MS-06',2013-03-09,12.88,0.875,6.5,0.875,13.82,0.0625,0.4,0.1,135.268
'All Saints B','The Blessed Angela Quiz Tournament','MS-04',2013-03-16,17.33,1.81818,7.66234,0.909091,15.80,0.103896,0.292208,0.0909091,269.803
'All Saints C','Charter Middle School Challenge','MS-06',2013-03-02,11.25,0.8,5.6,0.6,17.91,0.17,0.36,0.07,83.2484
'All Saints C','2nd Annual Detroit Catholic Central Middle School Tournament','MS-06',2013-03-09,11.62,0.25,4.375,0.125,13.66,0.05,0.5125,0.0625,104.375
'All Saints C','The Blessed Angela Quiz Tournament','MS-04',2013-03-16,14.15,0.641026,6.15385,0.25641,17.81,0.0769231,0.467949,0.0705128,93.3376
'All Saints D','Charter Middle School Challenge','MS-06',2013-03-02,11.18,0.4,6.4,0.8,13.34,0.13,0.26,0.06,80.6127
'All Saints E','Charter Middle School Challenge','MS-06',2013-03-02,6.32,0.0,4.75,0.5,10.08,0.025,0.5125,0.05,52.7506
'All Saints F','Charter Middle School Challenge','MS-06',2013-03-02,10.56,0.5,4.0,0.5,13.29,0.0875,0.5125,0.05,71.9199
'Annunciation Orthodox A','TQBA Middle School Kickoff - Houston','MS-11',2014-10-18,18.14,2.0,6.75,1.125,13.84,0.05625,0.33125,0.05625,164.387
'Annunciation Orthodox A','TQBA Middle School Holiday Hoedown','MS-12',2014-12-06,20.52,2.14286,6.14286,0.714286,21.36,0.121429,0.307143,0.0357143,145.227
'Annunciation Orthodox B','TQBA Middle School Kickoff - Houston','MS-11',2014-10-18,14.90,2.25,4.125,0.625,17.75,0.15,0.4,0.05625,86.2651
'Annunciation Orthodox B','TQBA Middle School Holiday Hoedown','MS-12',2014-12-06,17.50,1.57143,5.28571,1.42857,19.08,0.171429,0.278571,0.0714286,85.8167
'Annunciation Orthodox C','TQBA Middle School Kickoff - Houston','MS-11',2014-10-18,12.14,0.125,3.375,0.875,17.15,0.225,0.3875,0.1125,38.9454
'Barrington Middle-Prairie A','Gladiator Open 2013','MS-06',2013-03-23,19.02,2.25,8.0,1.625,17.79,0.0875,0.25,0.09375,184.877
'Barrington Middle-Station A','Gladiator Fall Tournament 2014','MS-11',2014-11-08,23.13,7.9,4.7,2.7,17.04,0.145,0.165,0.045,307.545
'Barrington Middle-Station A','Keith Invitational Tournament','MS-05',2013-01-21,26.60,10.6667,5.33333,1.66667,20.37,0.0888889,0.0722222,0.0888889,686.073
'Barrington Middle-Station B','Gladiator Fall Tournament 2014','MS-11',2014-11-08,18.46,3.77778,6.33333,2.77778,14.75,0.127778,0.216667,0.0444444,228.678
'Barrington Middle-Station B','Keith Invitational Tournament','MS-05',2013-01-21,21.43,4.66667,7.0,2.66667,17.97,0.105556,0.205556,0.0944444,316.22
'Barrington Middle-Station C','Gladiator Fall Tournament 2014','MS-11',2014-11-08,19.24,3.66667,5.11111,2.55556,16.77,0.133333,0.25,0.1,187.575
'Barrington Middle-Station D','Gladiator Fall Tournament 2014','MS-11',2014-11-08,14.00,1.33333,4.22222,1.77778,15.19,0.144444,0.355556,0.122222,78.6926
'Bate A','Campbell County Middle School Classic','MS-12',2014-10-25,18.20,3.0,4.625,4.875,18.49,0.1125,0.31875,0.075,102.2
'Bate B','Campbell County Middle School Classic','MS-12',2014-10-25,11.27,0.75,6.125,3.25,13.03,0.08125,0.33125,0.04375,82.215
'Bayside A','Gladiator Fall Tournament 2014','MS-11',2014-11-08,15.19,1.88889,4.11111,1.33333,15.24,0.144444,0.327778,0.116667,115.798
'Bayside B','Gladiator Fall Tournament 2014','MS-11',2014-11-08,19.47,4.0,6.44444,2.44444,16.85,0.0833333,0.25,0.0944444,221.642
'Bayside C','Gladiator Fall Tournament 2014','MS-11',2014-11-08,8.50,0.444444,4.0,0.666667,16.50,0.122222,0.444444,0.144444,67.1858
'Beachwood A','Solon Middle School Invitational','MS-05',2013-02-17,19.88,2.85714,8.71429,1.14286,17.81,0.0857143,0.2,0.0928571,326.609
'Beachwood B','Solon Middle School Invitational','MS-05',2013-02-17,11.40,1.5,5.66667,1.16667,15.69,0.125,0.375,0.075,154.284
'Beck Junior A','TQBA Winter Junior Rodeo Challenge','MS-06',2013-02-16,20.00,3.33333,4.16667,1.66667,20.57,0.258333,0.316667,0.0666667,83.3333
'Bellaire A','TQBA Winter Junior Rodeo Challenge','MS-06',2013-02-16,23.03,3.88889,9.66667,1.22222,12.80,0.116667,0.172222,0.0555556,317.444
'Berlin Brothersvalley A','3rd Annual Hilltopper Spring Invitational','MS-06',2013-02-23,14.45,0.628931,6.28931,1.50943,17.07,0.132075,0.301887,0.0377358,83.9561
'Berlin Brothersvalley A','Rockwood Middle School Invitational','MS-04',2013-04-06,6.67,0.136986,3.56164,0.136986,14.41,0.0684932,0.410959,0.0410959,40.7523
'Berlin Brothersvalley B','3rd Annual Hilltopper Spring Invitational','MS-06',2013-02-23,10.77,0.273973,6.84932,1.09589,11.14,0.0616438,0.308219,0.0479452,90.5119
'Berlin Brothersvalley B','Rockwood Middle School Invitational','MS-04',2013-04-06,12.33,1.80556,6.52778,0.694444,13.22,0.0694444,0.243056,0.0555556,114.525
'Berlin Brothersvalley C','3rd Annual Hilltopper Spring Invitational','MS-06',2013-02-23,9.05,0.387097,5.03226,0.516129,11.20,0.083871,0.329032,0.0774194,62.9837
'Berlin Brothersvalley C','Rockwood Middle School Invitational','MS-04',2013-04-06,12.89,1.23288,4.93151,1.50685,13.70,0.130137,0.349315,0.0547945,72.0041
'Berlin Brothersvalley D','3rd Annual Hilltopper Spring Invitational','MS-06',2013-02-23,7.50,0.0,2.92683,0.243902,9.47,0.0243902,0.347561,0.0304878,39.2285
'Berlin Brothersvalley E','3rd Annual Hilltopper Spring Invitational','MS-06',2013-02-23,8.62,0.120482,4.6988,0.481928,13.32,0.0421687,0.355422,0.0361446,55.7801
'Black Mountain A','Warhawk III Middle School Invitational','MS-11',2014-12-07,18.35,2.125,8.5,1.0,15.14,0.11875,0.21875,0.0625,166.365
'Black Mountain B','Warhawk III Middle School Invitational','MS-11',2014-12-07,20.99,2.33333,7.22222,1.11111,20.04,0.205556,0.216667,0.0944444,158.423
'Black Mountain C','Warhawk III Middle School Invitational','MS-11',2014-12-07,18.66,2.375,6.5,1.0,15.68,0.15625,0.2875,0.09375,148.72
'Blessed Trinity A','DeLaSalle Invitational Academic Tournament Of Middle Schools','MS-06',2013-04-06,17.44,2.05128,5.29915,2.39316,18.56,0.0940171,0.401709,0.0940171,102.487
'Blessed Trinity B','DeLaSalle Invitational Academic Tournament Of Middle Schools','MS-06',2013-04-06,13.79,0.618557,5.36082,2.06186,17.47,0.0824742,0.525773,0.0824742,85.4199
'Brandywine Springs A','Charter Middle School Challenge','MS-06',2013-03-02,15.00,1.0,7.0,1.2,16.26,0.1,0.35,0.07,131.705
'Brandywine Springs B','Charter Middle School Challenge','MS-06',2013-03-02,13.42,1.0,6.6,1.6,12.67,0.1,0.36,0.1,96.7094
'Brandywine Springs C','Charter Middle School Challenge','MS-06',2013-03-02,14.59,0.8,6.6,0.4,13.04,0.15,0.3,0.05,104.027
'Brandywine Springs D','Charter Middle School Challenge','MS-06',2013-03-02,9.00,0.25,2.25,0.25,17.91,0.0875,0.4875,0.125,24.9865
'Brandywine Springs E','Charter Middle School Challenge','MS-06',2013-03-02,4.62,0.0,3.25,0.75,16.15,0.1125,0.4,0.125,33.0849
'Brandywine Springs F','Charter Middle School Challenge','MS-06',2013-03-02,9.57,0.5,5.25,0.25,17.37,0.1125,0.4125,0.125,72.7924
'Brandywine Springs G','Charter Middle School Challenge','MS-06',2013-03-02,10.48,1.0,4.25,0.5,14.77,0.075,0.5375,0.0625,85.3084
'Brandywine Springs H','Charter Middle School Challenge','MS-06',2013-03-02,7.50,0.5,4.5,0.75,15.09,0.025,0.4625,0.1,71.9446
'Burleigh Manor Middle A','Centennial Invitational','IS-141A',2014-11-09,13.03,1.25,7.0,0.875,9.88,0.0875,0.2375,0.05,134.286
'Burleigh Manor Middle B','Centennial Invitational','IS-141A',2014-11-09,7.60,0.444444,5.11111,0.666667,12.42,0.0666667,0.361111,0.105556,69.1989
'Burleigh Manor Middle C','Centennial Invitational','IS-141A',2014-11-09,6.67,0.888889,5.44444,0.222222,7.65,0.0166667,0.283333,0.0555556,93.8733
'Burleigh Manor Middle D','Centennial Invitational','IS-141A',2014-11-09,6.00,0.777778,3.11111,1.55556,8.47,0.0666667,0.327778,0.0555556,41.2492
'Burleigh Manor Middle E','Centennial Invitational','IS-141A',2014-11-09,5.54,0.777778,5.44444,0.888889,7.58,0.0611111,0.255556,0.0666667,104.916
'Burleigh Manor Middle F','Centennial Invitational','IS-141A',2014-11-09,4.64,0.444444,2.66667,0.111111,6.09,0.0722222,0.361111,0.0555556,42.7497
'Burleigh Manor Middle G','Centennial Invitational','IS-141A',2014-11-09,2.67,0.0,1.66667,0.666667,10.91,0.0833333,0.45,0.0666667,22.6552
'Bush A','TQBA Middle School Kickoff - San Antonio','MS-11',2014-10-11,18.89,3.8,7.5,1.5,15.33,0.085,0.185,0.095,164.785
'Bush Middle A','TQBA Patriot Games','MS-12',2014-12-06,18.99,3.22222,8.88889,1.22222,13.88,0.0722222,0.205556,0.0722222,203.471
'Campbell County A','Campbell County Middle School Classic','MS-12',2014-10-25,19.63,3.66667,5.33333,3.0,20.37,0.2,0.261111,0.0777778,150.039
'Campbell County B','Campbell County Middle School Classic','MS-12',2014-10-25,14.84,1.0,6.75,1.0,10.00,0.025,0.2375,0.0375,103.474
'Carmel Valley A','Warhawk III Middle School Invitational','MS-11',2014-12-07,25.17,8.6,6.1,1.5,12.69,0.1,0.09,0.08,373.515
'Carmel Valley B','Warhawk III Middle School Invitational','MS-11',2014-12-07,21.78,5.66667,6.22222,0.666667,18.70,0.155556,0.194444,0.0555556,212.434
'Centennial A','Lockout Affair Requiring Grade Eight Seven Six Entrants','MS-12',2014-12-13,18.30,3.62637,7.03297,1.86813,18.27,0.0934066,0.21978,0.0769231,157.808
'Centennial A','DeLaSalle Invitational Academic Tournament Of Middle Schools','MS-06',2013-04-06,19.38,1.91011,7.19101,2.24719,16.03,0.140449,0.252809,0.0449438,211.668
'Centennial B','DeLaSalle Invitational Academic Tournament Of Middle Schools','MS-06',2013-04-06,13.06,0.724638,4.49275,1.73913,15.99,0.0942029,0.442029,0.0434783,62.0621
'Chaboya A','Stratford-Santa Clara Middle School Invitational','MS-11',2014-12-13,16.51,1.75,4.875,1.25,17.94,0.15,0.35,0.05625,101.522
'Chaboya A','Stratford-Santa Clara Middle School Invitational','MS-06',2013-02-23,15.78,2.42857,5.85714,2.14286,16.09,0.164286,0.3,0.0642857,112.083
'Challenger-Ardenwood A','Stratford-Santa Clara Middle School Invitational','MS-11',2014-12-13,21.07,3.45679,6.04938,2.46914,22.26,0.17284,0.277778,0.104938,141.183
'Challenger-Ardenwood B','Stratford-Santa Clara Middle School Invitational','MS-11',2014-12-13,15.93,2.25,6.5,1.125,18.42,0.18125,0.23125,0.08125,113.2
'Challenger-Berryessa A','Stratford-Santa Clara Middle School Invitational','MS-11',2014-12-13,23.53,4.25,7.625,1.625,17.98,0.16875,0.16875,0.08125,218.528
'Challenger-Berryessa A','2013 Bellarmine Middle School Invitational','MS-05',2013-02-02,19.44,4.71429,6.71429,2.28571,17.40,0.0785714,0.285714,0.0714286,278.011
'Challenger-Berryessa A','Stratford-Santa Clara Middle School Invitational','MS-06',2013-02-23,21.83,5.5,7.5,2.0,19.63,0.15,0.1375,0.05625,241.292
'Challenger-Berryessa B','Stratford-Santa Clara Middle School Invitational','MS-11',2014-12-13,17.09,1.875,5.0,1.625,16.79,0.13125,0.31875,0.08125,106.295
'Challenger-Strawberry Park A','Stratford-Santa Clara Middle School Invitational','MS-11',2014-12-13,23.44,4.11111,6.55556,1.88889,16.60,0.155556,0.216667,0.0722222,197.821
'Challenger-Strawberry Park B','Stratford-Santa Clara Middle School Invitational','MS-11',2014-12-13,14.89,1.5,4.375,1.375,17.23,0.1375,0.38125,0.08125,73.1216
'Challenger-Sunnyvale A','Stratford-Santa Clara Middle School Invitational','MS-11',2014-12-13,23.46,6.33333,5.55556,2.77778,15.05,0.138889,0.177778,0.0444444,332.916
'Challenger-Sunnyvale A','2013 Bellarmine Middle School Invitational','MS-05',2013-02-02,16.72,1.95804,6.99301,1.3986,17.89,0.0699301,0.356643,0.111888,122.336
'Challenger-Sunnyvale A','Stratford-Santa Clara Middle School Invitational','MS-06',2013-02-23,16.47,2.57143,4.71429,2.0,16.85,0.135714,0.371429,0.0928571,100.105
'Challenger-Sunnyvale B','Stratford-Santa Clara Middle School Invitational','MS-11',2014-12-13,23.23,2.71605,7.03704,1.85185,19.34,0.135802,0.228395,0.0679012,182.684
'Challenger-Sunnyvale B','Stratford-Santa Clara Middle School Invitational','MS-06',2013-02-23,18.24,2.42857,5.28571,1.71429,16.17,0.171429,0.335714,0.05,107.637
'Chartiers Valley A','East Palestine Middle School Invitational','MS-11',2014-11-15,20.84,4.28571,9.28571,1.28571,10.09,0.0357143,0.121429,0.0428571,377.61
'Chartiers Valley B','East Palestine Middle School Invitational','MS-11',2014-11-15,11.80,1.14286,6.0,0.571429,9.86,0.05,0.214286,0.0428571,124.517
'Cistercian A','TQBA Big-D Challenge','MS-11',2014-09-13,22.17,4.0,7.85714,1.0,16.36,0.114286,0.185714,0.0642857,257.574
'Cistercian A','TQBA Lions' Den Invitational I','MS-12',2014-11-15,24.54,4.375,7.75,1.5,17.11,0.09375,0.2,0.06875,313.804
'Cistercian A','TQBA Big-D Challenge','MS-11',2014-09-13,22.17,4.0,7.85714,1.0,16.36,0.114286,0.185714,0.0642857,257.574
'Cistercian B','TQBA Big-D Challenge','MS-11',2014-09-13,17.39,2.0,4.57143,2.0,17.89,0.164286,0.278571,0.0357143,117.058
'Cistercian B','TQBA Lions' Den Invitational I','MS-12',2014-11-15,19.14,2.77778,7.55556,1.88889,16.92,0.116667,0.238889,0.0611111,214.354
'Cistercian B','TQBA Big-D Challenge','MS-11',2014-09-13,17.39,2.0,4.57143,2.0,17.89,0.164286,0.278571,0.0357143,117.058
'Cistercian C','TQBA Big-D Challenge','MS-11',2014-09-13,16.52,1.16667,6.5,1.0,14.91,0.108333,0.283333,0.0916667,129.32
'Cistercian C','TQBA Lions' Den Invitational I','MS-12',2014-11-15,16.30,1.77778,6.33333,1.44444,16.75,0.127778,0.288889,0.0777778,148.196
'Cistercian C','TQBA Big-D Challenge','MS-11',2014-09-13,16.52,1.16667,6.5,1.0,14.91,0.108333,0.283333,0.0916667,129.32
'City School A','Warhawk III Middle School Invitational','MS-11',2014-12-07,10.69,0.571429,3.57143,0.714286,13.80,0.121429,0.392857,0.0928571,61.4745
'City School B','Warhawk III Middle School Invitational','MS-11',2014-12-07,9.65,1.125,4.25,2.125,16.53,0.16875,0.30625,0.05625,57.8408
'City School C','Warhawk III Middle School Invitational','MS-11',2014-12-07,10.73,1.375,3.75,0.875,16.17,0.13125,0.38125,0.09375,64.5119
'Clark Elementary A','Stratford-Santa Clara Middle School Invitational','MS-11',2014-12-13,8.12,0.0,2.0,0.125,16.20,0.1375,0.49375,0.0875,20.7693
'Clear Brook A','TQBA Winter Junior Rodeo Challenge','MS-06',2013-02-16,22.88,5.22222,7.11111,1.33333,19.84,0.122222,0.183333,0.0666667,241.285
'Copley-Fairlawn A','Solon Middle School Invitational','MS-05',2013-02-17,22.63,4.625,7.5,3.375,14.58,0.09375,0.2125,0.03125,260.266
'Copley-Fairlawn B','Solon Middle School Invitational','MS-05',2013-02-17,21.95,3.0,8.71429,2.71429,19.67,0.0571429,0.207143,0.05,175.768
'Copley-Fairlawn C','Solon Middle School Invitational','MS-05',2013-02-17,15.89,2.28571,6.57143,2.14286,13.97,0.107143,0.242857,0.05,114.141
'Creative & Performing Arts A','Warhawk III Middle School Invitational','MS-11',2014-12-07,19.31,2.11111,5.88889,2.44444,14.69,0.172222,0.261111,0.0277778,96.1151
'Dawkins Middle A','Dorman Fall Tournament','MS-11',2014-11-01,18.73,3.33333,8.19444,2.91667,13.50,0.0347222,0.222222,0.0625,219.422
'Dawkins Middle B','Dorman Fall Tournament','MS-11',2014-11-01,12.80,0.535714,6.78571,1.96429,14.55,0.0535714,0.357143,0.0535714,93.7767
'Dawkins Middle C','Dorman Fall Tournament','MS-11',2014-11-01,9.09,0.683761,3.07692,0.683761,14.77,0.034188,0.452991,0.0683761,43.5049
'Dawkins Middle D','Dorman Fall Tournament','MS-11',2014-11-01,12.65,0.347826,5.56522,0.869565,16.76,0.104348,0.356522,0.121739,71.9776
'Detroit Country Day A','2nd Annual Detroit Catholic Central Middle School Tournament','MS-06',2013-03-09,17.11,2.5,7.0,1.5,13.22,0.0875,0.29375,0.05625,160.067
'Detroit Country Day B','2nd Annual Detroit Catholic Central Middle School Tournament','MS-06',2013-03-09,14.54,1.0,8.5,1.5,14.72,0.0625,0.3125,0.0625,146.466
'Detroit Country Day C','2nd Annual Detroit Catholic Central Middle School Tournament','MS-06',2013-03-09,12.50,0.75,7.25,1.75,13.81,0.0875,0.35625,0.04375,103.034
'Diablo Vista A','Stratford-Santa Clara Middle School Invitational','MS-11',2014-12-13,14.90,1.625,4.75,1.5,16.78,0.10625,0.41875,0.0625,91.6406
'Diablo Vista B','Stratford-Santa Clara Middle School Invitational','MS-11',2014-12-13,15.45,1.25,5.625,1.75,15.44,0.15625,0.2875,0.025,84.9237
'East Palestine A','East Palestine Middle School Invitational','MS-11',2014-11-15,9.57,0.0,3.28571,1.28571,8.84,0.0285714,0.371429,0.0428571,37.1818
'East Palestine B','East Palestine Middle School Invitational','MS-11',2014-11-15,6.07,0.142857,3.85714,0.428571,7.51,0.0357143,0.25,0.0714286,60.2147
'Eden Prairie Central A','Lockout Affair Requiring Grade Eight Seven Six Entrants','MS-12',2014-12-13,18.46,2.95082,6.99454,1.42077,15.95,0.103825,0.256831,0.0710383,212.186
'Eden Prairie Central A','DeLaSalle Invitational Academic Tournament Of Middle Schools','MS-06',2013-04-06,19.03,2.62009,7.24891,1.13537,17.12,0.100437,0.305677,0.0917031,158.201
'Eden Prairie Central B','DeLaSalle Invitational Academic Tournament Of Middle Schools','MS-06',2013-04-06,16.33,1.9697,5.45455,2.27273,17.83,0.136364,0.409091,0.0227273,113.057
'Edmonson County A','Campbell County Middle School Classic','MS-12',2014-10-25,22.15,4.0,5.875,2.875,18.29,0.1375,0.25,0.0875,173.924
'Emerson A','Stratford-Santa Clara Middle School Invitational','MS-11',2014-12-13,14.39,1.5,5.625,1.5,19.90,0.125,0.3375,0.11875,85.7262
'Ephrata A','Manheim Township Middle School Academic Challenge','MS-05',2013-01-19,17.78,1.0,8.0,1.14286,14.16,0.0857143,0.321429,0.0857143,126.107
'Ephrata B','Manheim Township Middle School Academic Challenge','MS-05',2013-01-19,10.00,0.0,1.85714,0.0,16.52,0.107143,0.528571,0.0857143,19.7669
'Fallon A','Stratford-Santa Clara Middle School Invitational','MS-11',2014-12-13,15.12,2.125,3.25,0.5,19.56,0.15,0.39375,0.1125,70.336
'Fulmore A','TQBA Capital City Challenge','MS-11',2014-09-20,16.00,0.857143,5.57143,0.857143,18.31,0.164286,0.392857,0.0714286,80.6259
'Fulmore A','TQBA Lions' Den Invitational I','MS-12',2014-11-15,17.81,2.22222,8.44444,0.333333,16.72,0.111111,0.233333,0.0833333,178.191
'Fulmore B','TQBA Capital City Challenge','MS-11',2014-09-20,14.88,2.16667,4.5,2.0,20.49,0.158333,0.366667,0.133333,90.8358
'Fulmore B','TQBA Lions' Den Invitational I','MS-12',2014-11-15,12.50,0.714286,4.42857,1.14286,13.91,0.135714,0.342857,0.107143,79.9513
'Fulmore C','TQBA Capital City Challenge','MS-11',2014-09-20,9.44,1.16667,4.83333,1.16667,18.13,0.116667,0.433333,0.1,74.652
'Fulmore D','TQBA Capital City Challenge','MS-11',2014-09-20,11.30,0.5,3.33333,1.0,21.39,0.291667,0.333333,0.075,42.3474
'Fulmore E','TQBA Capital City Challenge','MS-11',2014-09-20,10.83,0.166667,1.83333,0.5,21.68,0.291667,0.433333,0.0916667,19.7165
'Fulmore Middle A','TQBA Panther Challenge','MS-05',2013-01-12,22.46,2.33333,10.7778,0.555556,16.31,0.0555556,0.222222,0.0666667,355.077
'Fulmore Middle A','TQBA Winter Junior Rodeo Challenge','MS-06',2013-02-16,23.71,3.55556,5.88889,1.22222,21.37,0.227778,0.244444,0.0777778,218.619
'Fulmore Middle A','St. Mark's School of Texas Invitational','MS-06',2013-03-02,16.10,2.33333,6.22222,1.55556,18.04,0.127778,0.35,0.0833333,130.861
'Fulmore Middle B','TQBA Panther Challenge','MS-05',2013-01-12,14.84,1.375,6.5,1.5,17.23,0.08125,0.34375,0.06875,143.363
'Fulmore Middle B','St. Mark's School of Texas Invitational','MS-06',2013-03-02,15.88,1.5,4.875,0.625,17.17,0.15,0.3625,0.075,84.5771
'Fulmore Middle C','St. Mark's School of Texas Invitational','MS-06',2013-03-02,15.34,1.66667,6.44444,1.11111,17.24,0.122222,0.327778,0.0666667,119.04
'Gable Middle A','Dorman Fall Tournament','MS-11',2014-11-01,20.56,1.68067,7.39496,1.84874,12.36,0.0588235,0.210084,0.0504202,133.469
'Garcia A','TQBA Middle School Kickoff - San Antonio','MS-11',2014-10-11,18.72,2.8,6.6,2.4,14.91,0.115,0.28,0.06,180.384
'Garcia B','TQBA Middle School Kickoff - San Antonio','MS-11',2014-10-11,17.19,2.25,5.75,2.125,13.50,0.11875,0.26875,0.075,136.562
'Gardner Bullis A','2013 Bellarmine Middle School Invitational','MS-05',2013-02-02,11.43,0.714286,3.28571,0.285714,16.64,0.164286,0.471429,0.114286,68.8878
'Gardner Bullis A','Stratford-Santa Clara Middle School Invitational','MS-06',2013-02-23,13.66,1.14286,4.71429,0.142857,17.10,0.171429,0.421429,0.107143,66.9173
'Grant A','Warhawk III Middle School Invitational','MS-11',2014-12-07,15.81,2.0,4.14286,3.28571,13.16,0.0785714,0.307143,0.0785714,74.2315
'Grant B','Warhawk III Middle School Invitational','MS-11',2014-12-07,12.05,1.375,3.5,1.5,17.17,0.175,0.33125,0.10625,59.3183
'Grant C','Warhawk III Middle School Invitational','MS-11',2014-12-07,11.94,1.75,6.0,2.75,15.42,0.08125,0.2875,0.0625,103.149
'Great Valley A','Great Valley Middle School Quiz Bowl Tournament','MS-11',2014-12-06,19.56,4.2,7.2,2.0,15.80,0.095,0.21,0.095,300.013
'Great Valley B','Great Valley Middle School Quiz Bowl Tournament','MS-11',2014-12-06,14.30,1.0,7.6,1.5,12.89,0.055,0.31,0.115,187.175
'Great Valley C','Great Valley Middle School Quiz Bowl Tournament','MS-11',2014-12-06,13.53,0.8,5.0,2.9,18.38,0.135,0.375,0.075,78.777
'Greenhill A','TQBA Big-D Challenge','MS-11',2014-09-13,17.50,1.57143,6.42857,1.14286,17.30,0.128571,0.292857,0.0785714,106.91
'Greenhill A','TQBA Lions' Den Invitational I','MS-12',2014-11-15,20.40,3.75,5.625,1.625,17.56,0.1375,0.28125,0.075,159.468
'Greenhill A','TQBA Big-D Challenge','MS-11',2014-09-13,17.50,1.57143,6.42857,1.14286,17.30,0.128571,0.292857,0.0785714,106.91
'Greenhill A','TQBA Panther Challenge','MS-05',2013-01-12,18.41,1.75,6.5,1.625,18.68,0.10625,0.38125,0.05,121.967
'Greenhill A','St. Mark's School of Texas Invitational','MS-06',2013-03-02,19.91,3.8,6.9,1.4,16.33,0.14,0.235,0.07,202.771
'Greenhill B','TQBA Big-D Challenge','MS-11',2014-09-13,14.63,1.33333,5.5,1.33333,18.14,0.116667,0.358333,0.0583333,90.1358
'Greenhill B','TQBA Lions' Den Invitational I','MS-12',2014-11-15,15.48,2.0,5.75,2.875,17.74,0.15625,0.2875,0.13125,118.874
'Greenhill B','TQBA Big-D Challenge','MS-11',2014-09-13,14.63,1.33333,5.5,1.33333,18.14,0.116667,0.358333,0.0583333,90.1358
'Greenhill B','TQBA Panther Challenge','MS-05',2013-01-12,14.90,1.0,6.14286,1.85714,16.56,0.114286,0.385714,0.0571429,91.0908
'Greenhill B','St. Mark's School of Texas Invitational','MS-06',2013-03-02,14.83,1.25,6.0,1.875,17.59,0.1375,0.375,0.05,92.4557
'Greenhill C','TQBA Big-D Challenge','MS-11',2014-09-13,16.30,1.85714,5.85714,1.0,15.18,0.121429,0.3,0.0928571,115.749
'Greenhill C','TQBA Lions' Den Invitational I','MS-12',2014-11-15,16.03,2.0,7.125,1.625,17.47,0.06875,0.29375,0.075,147.702
'Greenhill C','TQBA Big-D Challenge','MS-11',2014-09-13,16.30,1.85714,5.85714,1.0,15.18,0.121429,0.3,0.0928571,115.749
'Greenhill D','TQBA Big-D Challenge','MS-11',2014-09-13,12.05,0.833333,5.66667,1.0,16.43,0.108333,0.333333,0.0833333,73.1945
'Greenhill D','TQBA Lions' Den Invitational I','MS-12',2014-11-15,13.56,1.57143,4.85714,0.857143,17.64,0.0571429,0.435714,0.0785714,80.0941
'Greenhill D','TQBA Big-D Challenge','MS-11',2014-09-13,12.05,0.833333,5.66667,1.0,16.43,0.108333,0.333333,0.0833333,73.1945
'Greenhill E','TQBA Big-D Challenge','MS-11',2014-09-13,13.16,0.166667,3.0,1.33333,19.85,0.166667,0.441667,0.0666667,37.5665
'Greenhill E','TQBA Lions' Den Invitational I','MS-12',2014-11-15,10.77,0.714286,3.0,0.285714,18.78,0.121429,0.457143,0.0571429,45.0871
'Greenhill E','TQBA Big-D Challenge','MS-11',2014-09-13,13.16,0.166667,3.0,1.33333,19.85,0.166667,0.441667,0.0666667,37.5665
'Guardian Angels A','The Blessed Angela Quiz Tournament','MS-04',2013-03-16,10.37,0.503145,2.89308,1.00629,16.36,0.0943396,0.566038,0.0754717,49.3597
'Harmony Excellence-Houston A','TQBA Middle School Kickoff - Houston','MS-11',2014-10-18,26.13,9.3,4.4,1.1,19.73,0.19,0.11,0.035,277.484
'Harmony Excellence-Houston B','TQBA Middle School Kickoff - Houston','MS-11',2014-10-18,12.94,0.857143,4.0,0.714286,18.15,0.164286,0.414286,0.1,75.1606
'Harmony Excellence-Houston B','TQBA Middle School Holiday Hoedown','MS-12',2014-12-06,15.68,0.714286,5.57143,0.142857,18.83,0.157143,0.414286,0.0857143,111.433
'Hawken A','Solon Middle School Invitational','MS-05',2013-02-17,20.38,4.0,7.42857,2.42857,15.70,0.0571429,0.271429,0.0857143,242.009
'Hawken B','Solon Middle School Invitational','MS-05',2013-02-17,15.90,1.33333,5.16667,0.833333,15.91,0.141667,0.391667,0.0833333,89.9148
'Hawken C','Solon Middle School Invitational','MS-05',2013-02-17,13.42,0.714286,4.71429,1.0,15.27,0.0714286,0.428571,0.1,74.4794
'Hawken D','Solon Middle School Invitational','MS-05',2013-02-17,20.18,2.43902,6.66667,0.97561,15.17,0.105691,0.325203,0.0894309,168.569
'Hawken E','Solon Middle School Invitational','MS-05',2013-02-17,11.05,1.0,4.42857,1.0,16.16,0.192857,0.407143,0.0857143,66.4543
'Henley Middle A','Millbrook Fall Tournament','MS-10',2014-10-25,19.72,2.5,6.5,2.625,17.56,0.15625,0.25,0.10625,217.454
'Henley Middle B','Millbrook Fall Tournament','MS-10',2014-10-25,15.34,1.0,5.28571,1.0,18.60,0.1,0.4,0.114286,135.889
'Holmes A','Stratford-Santa Clara Middle School Invitational','MS-11',2014-12-13,22.87,5.44444,5.77778,1.55556,19.07,0.183333,0.155556,0.1,219.285
'Holmes B','Stratford-Santa Clara Middle School Invitational','MS-11',2014-12-13,14.82,1.375,5.75,0.5,19.21,0.13125,0.35625,0.10625,96.5957
'Holy Cross A','Keith Invitational Tournament','MS-05',2013-01-21,13.88,1.11111,6.33333,0.111111,17.01,0.0944444,0.411111,0.0944444,139.845
'Holy Family A','TQBA Capital City Challenge','MS-11',2014-09-20,21.95,5.125,9.625,1.75,15.68,0.1,0.1125,0.05625,270.05
'Holy Family A','TQBA Patriot Games','MS-12',2014-12-06,17.30,1.7,7.2,0.5,14.70,0.13,0.27,0.07,140.607
'Holy Family A','TQBA Winter Junior Rodeo Challenge','MS-06',2013-02-16,21.64,3.71429,4.14286,1.0,23.63,0.285714,0.257143,0.0714286,117.931
'Holy Family B','TQBA Capital City Challenge','MS-11',2014-09-20,16.38,1.14286,5.57143,1.42857,16.01,0.114286,0.342857,0.0571429,86.8334
'Holy Family B','TQBA Patriot Games','MS-12',2014-12-06,16.49,1.625,5.5,1.625,16.41,0.10625,0.36875,0.05625,97.1134
'Holy Family B','St. Mark's School of Texas Invitational','MS-06',2013-03-02,21.89,4.3,8.4,0.9,17.25,0.095,0.235,0.055,260.335
'Holy Family C','TQBA Patriot Games','MS-12',2014-12-06,13.64,0.571429,5.71429,1.57143,13.87,0.0785714,0.385714,0.0928571,76.282
'Holy Family C','St. Mark's School of Texas Invitational','MS-06',2013-03-02,16.88,3.4,7.8,1.0,17.33,0.135,0.23,0.07,142.806
'Imani A','TQBA Middle School Kickoff - Houston','MS-11',2014-10-18,7.50,0.285714,2.0,0.142857,14.49,0.0714286,0.478571,0.0857143,26.3798
'Independence A','Centennial Invitational','IS-141A',2014-11-09,13.68,1.55556,8.11111,2.11111,9.90,0.0611111,0.2,0.0444444,334.431
'Independence A','Great Valley Middle School Quiz Bowl Tournament','MS-11',2014-12-06,22.21,5.1,8.0,1.7,16.64,0.14,0.125,0.055,292.373
'Independence A','Manheim Township Middle School Academic Challenge','MS-05',2013-01-19,20.13,3.85714,7.28571,1.14286,20.57,0.15,0.2,0.0571429,245.208
'Independence A','Charter Middle School Challenge','MS-06',2013-03-02,23.81,4.28571,8.28571,1.71429,14.88,0.107143,0.192857,0.0928571,274.832
'Independence B','Great Valley Middle School Quiz Bowl Tournament','MS-11',2014-12-06,22.07,6.1,5.0,2.7,16.98,0.17,0.16,0.06,234.182
'Independence B','Manheim Township Middle School Academic Challenge','MS-05',2013-01-19,23.05,5.57143,6.14286,2.14286,17.37,0.114286,0.214286,0.0428571,253.01
'Independence B','Charter Middle School Challenge','MS-06',2013-03-02,24.13,7.57143,7.28571,1.57143,16.13,0.0857143,0.1,0.0571429,419.382
'Independence C','Great Valley Middle School Quiz Bowl Tournament','MS-11',2014-12-06,20.22,2.5,6.8,0.7,17.61,0.155,0.295,0.11,149.398
'Independence C','Manheim Township Middle School Academic Challenge','MS-05',2013-01-19,18.36,2.14286,8.28571,1.85714,15.38,0.0857143,0.292857,0.0928571,178.045
'Independence C','Charter Middle School Challenge','MS-06',2013-03-02,17.59,2.33333,6.66667,2.0,14.83,0.125,0.308333,0.0416667,140.652
'Independence D','Great Valley Middle School Quiz Bowl Tournament','MS-11',2014-12-06,15.78,1.6,6.1,1.2,15.56,0.105,0.335,0.085,158.866
'Independence D','Manheim Township Middle School Academic Challenge','MS-05',2013-01-19,15.26,0.857143,7.28571,1.71429,18.20,0.1,0.342857,0.1,144.347
'Independence D','Charter Middle School Challenge','MS-06',2013-03-02,20.51,2.83333,7.0,1.0,18.54,0.166667,0.258333,0.05,177.1
'Independence E','Great Valley Middle School Quiz Bowl Tournament','MS-11',2014-12-06,12.97,1.4,5.0,1.2,17.24,0.15,0.365,0.115,91.7954
'Independence E','Charter Middle School Challenge','MS-06',2013-03-02,16.52,3.33333,9.83333,2.16667,5.71,0.0833333,0.0916667,0.0666667,277.843
'Independence F','Great Valley Middle School Quiz Bowl Tournament','MS-11',2014-12-06,16.14,1.8,6.5,1.7,13.87,0.13,0.28,0.15,120.92
'Independence F','Charter Middle School Challenge','MS-06',2013-03-02,15.65,1.0,10.5,0.833333,10.63,0.025,0.216667,0.0666667,196.728
'Ingomar A','3rd Annual Hilltopper Spring Invitational','MS-06',2013-02-23,20.52,5.31646,5.56962,1.89873,16.07,0.107595,0.246835,0.0316456,200.205
'James W. Robinson D','Centennial Invitational','IS-141A',2014-11-09,14.37,2.25,6.625,2.125,11.11,0.06875,0.2625,0.06875,121.32
'James W. Robinson E','Centennial Invitational','IS-141A',2014-11-09,10.75,0.777778,5.11111,1.55556,9.28,0.0666667,0.316667,0.0444444,72.6217
'Johnson County A','Campbell County Middle School Classic','MS-12',2014-10-25,23.72,6.44444,6.11111,2.22222,17.09,0.138889,0.155556,0.0722222,258.702
'Johnson County B','Campbell County Middle School Classic','MS-12',2014-10-25,20.00,2.875,5.75,1.625,19.66,0.13125,0.3125,0.125,153.852
'Johnson County C','Campbell County Middle School Classic','MS-12',2014-10-25,16.67,1.625,5.875,0.5,18.13,0.1375,0.33125,0.14375,118.353
'Kealing A','TQBA Capital City Challenge','MS-11',2014-09-20,27.67,10.8889,5.33333,2.22222,13.26,0.0111111,0.111111,0.0222222,551.941
'Kealing B','TQBA Capital City Challenge','MS-11',2014-09-20,21.12,5.42857,7.28571,2.28571,16.69,0.05,0.214286,0.0642857,265.712
'Kealing C','TQBA Capital City Challenge','MS-11',2014-09-20,14.85,0.833333,4.66667,1.33333,15.80,0.166667,0.358333,0.0833333,63.6333
'Kealing Middle A','TQBA Patriot Games','MS-12',2014-12-06,24.11,6.22222,7.55556,2.0,13.63,0.0277778,0.2,0.0277778,348.682
'Kealing Middle A','TQBA Winter Junior Rodeo Challenge','MS-06',2013-02-16,23.06,7.55556,4.44444,2.0,21.68,0.172222,0.194444,0.0611111,249.811
'Kealing Middle B','TQBA Winter Junior Rodeo Challenge','MS-06',2013-02-16,24.04,3.71429,6.71429,0.857143,21.44,0.192857,0.228571,0.0714286,196.349
'Kealing Middle C','TQBA Winter Junior Rodeo Challenge','MS-06',2013-02-16,20.58,2.85714,7.0,1.0,22.01,0.157143,0.307143,0.1,169.109
'Keith Country Day A','Gladiator Fall Tournament 2014','MS-11',2014-11-08,15.95,1.66667,6.55556,1.44444,15.89,0.166667,0.261111,0.127778,129.729
'Keith Country Day A','Keith Invitational Tournament','MS-05',2013-01-21,17.62,0.888889,8.44444,1.55556,17.87,0.0888889,0.322222,0.105556,166.725
'Keith Country Day A','Gladiator Open 2013','MS-06',2013-03-23,16.83,1.375,6.5,0.5,20.07,0.25,0.275,0.10625,115.652
'Keith Country Day B','Gladiator Fall Tournament 2014','MS-11',2014-11-08,14.03,1.0,6.44444,0.444444,18.03,0.155556,0.305556,0.111111,128.425
'Keith Country Day B','Keith Invitational Tournament','MS-05',2013-01-21,12.46,2.0,4.77778,2.77778,15.25,0.127778,0.355556,0.0888889,115.587
'Keith Country Day B','Gladiator Open 2013','MS-06',2013-03-23,14.39,1.5,4.625,3.25,17.12,0.13125,0.4125,0.05,69.6637
'Lake Center Christian A','East Palestine Middle School Invitational','MS-11',2014-11-15,11.38,0.714286,7.57143,0.571429,11.15,0.0642857,0.228571,0.0428571,122.802
'League City Intermediate A','TQBA Middle School Holiday Hoedown','MS-12',2014-12-06,20.29,1.75,6.75,0.75,19.92,0.1625,0.26875,0.075,150.41
'Longfellow A','Great Valley Middle School Quiz Bowl Tournament','MS-11',2014-12-06,21.59,4.8,6.5,0.9,15.10,0.15,0.185,0.075,198.247
'Longfellow A','Manheim Township Middle School Academic Challenge','MS-05',2013-01-19,24.89,5.71429,7.42857,3.0,14.58,0.0642857,0.242857,0.05,310.551
'Longfellow A','Charter Middle School Challenge','MS-06',2013-03-02,22.63,4.28571,6.57143,2.14286,18.30,0.135714,0.257143,0.0642857,211.335
'Longfellow B','Great Valley Middle School Quiz Bowl Tournament','MS-11',2014-12-06,18.94,3.1,6.3,2.1,16.54,0.14,0.265,0.07,133.979
'Longfellow B','Manheim Township Middle School Academic Challenge','MS-05',2013-01-19,20.95,2.875,6.375,4.125,17.75,0.15625,0.30625,0.09375,142.66
'Longfellow Middle A','Centennial Invitational','IS-141A',2014-11-09,18.44,2.77778,9.66667,1.33333,10.56,0.0444444,0.127778,0.0333333,257.555
'Longfellow Middle B','Centennial Invitational','IS-141A',2014-11-09,12.41,2.0,7.66667,1.77778,10.89,0.0388889,0.238889,0.0722222,155.109
'Lopez A','TQBA Middle School Kickoff - San Antonio','MS-11',2014-10-11,20.69,3.8,7.8,2.2,14.63,0.055,0.225,0.05,236.108
'Lopez B','TQBA Middle School Kickoff - San Antonio','MS-11',2014-10-11,15.83,0.875,5.125,1.625,17.24,0.13125,0.3625,0.04375,89.0551
'Lopez Middle A','TQBA Patriot Games','MS-12',2014-12-06,21.04,4.0,8.5,1.1,14.89,0.1,0.185,0.07,259.278
'Lopez Middle B','TQBA Patriot Games','MS-12',2014-12-06,14.92,1.125,6.25,1.375,16.86,0.075,0.40625,0.075,102.197
'Manheim Township A','Manheim Township Middle School Academic Challenge','MS-05',2013-01-19,19.51,1.57143,10.1429,0.285714,15.22,0.0571429,0.264286,0.0785714,339.103
'Marshall A','Warhawk III Middle School Invitational','MS-11',2014-12-07,22.42,5.0,6.8,0.9,20.41,0.175,0.15,0.125,251.249
'Marshall B','Warhawk III Middle School Invitational','MS-11',2014-12-07,18.31,3.25,6.375,1.375,18.49,0.0625,0.325,0.08125,196.254
'Martinsville Middle A','Millbrook Fall Tournament','MS-10',2014-10-25,13.33,2.125,6.125,1.5,16.30,0.11875,0.3,0.10625,111.661
'Mary Queen of Peace A','DeLaSalle Invitational Academic Tournament Of Middle Schools','MS-06',2013-04-06,14.32,0.863309,4.46043,2.15827,15.81,0.0863309,0.388489,0.100719,57.7738
'Mary Queen of Peace B','DeLaSalle Invitational Academic Tournament Of Middle Schools','MS-06',2013-04-06,9.47,0.46875,2.5,0.625,16.21,0.078125,0.585938,0.0859375,31.9249
'Matsumoto Elementary A','Stratford-Santa Clara Middle School Invitational','MS-11',2014-12-13,6.61,0.25,3.25,0.75,15.17,0.1375,0.3875,0.10625,37.2858
'McMeans Junior A','TQBA Winter Junior Rodeo Challenge','MS-06',2013-02-16,14.02,1.33333,5.5,2.0,18.76,0.05,0.508333,0.0583333,83.5992
'McMeans Junior B','TQBA Winter Junior Rodeo Challenge','MS-06',2013-02-16,18.73,2.71429,7.42857,2.28571,15.34,0.128571,0.221429,0.1,162.73
'Metcalf Lab A','Keith Invitational Tournament','MS-05',2013-01-21,19.05,3.0,5.22222,2.77778,19.18,0.172222,0.283333,0.0833333,124.908
'Metcalf Lab B','Keith Invitational Tournament','MS-05',2013-01-21,15.19,0.777778,5.22222,1.55556,15.46,0.138889,0.416667,0.0611111,71.8555
'Metcalf Lab C','Keith Invitational Tournament','MS-05',2013-01-21,13.61,1.22222,5.55556,1.66667,16.75,0.0888889,0.427778,0.0944444,89.4427
'Metrolina A','Millbrook Fall Tournament','MS-10',2014-10-25,17.25,2.25,5.25,2.125,16.72,0.15625,0.29375,0.0875,150.047
'Meyzeek A','Campbell County Middle School Classic','MS-12',2014-10-25,25.42,6.33333,7.0,2.44444,21.17,0.127778,0.144444,0.0777778,318.418
'Meyzeek B','Campbell County Middle School Classic','MS-12',2014-10-25,24.27,4.0,5.88889,1.77778,23.08,0.244444,0.194444,0.0777778,179.089
'Meyzeek C','Campbell County Middle School Classic','MS-12',2014-10-25,19.38,2.125,5.875,2.125,19.58,0.175,0.30625,0.075,159.208
'Mineral Ridge A','East Palestine Middle School Invitational','MS-11',2014-11-15,9.78,0.714286,5.85714,1.14286,9.50,0.0142857,0.271429,0.0357143,72.9599
'Mineral Ridge B','East Palestine Middle School Invitational','MS-11',2014-11-15,4.50,0.0,2.85714,0.428571,12.30,0.0571429,0.335714,0.0571429,29.2994
'Mogadore A','East Palestine Middle School Invitational','MS-11',2014-11-15,10.28,0.285714,4.85714,1.0,10.67,0.0714286,0.278571,0.0428571,58.5589
'Mounds Park A','Lockout Affair Requiring Grade Eight Seven Six Entrants','MS-12',2014-12-13,16.56,2.01439,6.76259,2.15827,18.62,0.136691,0.266187,0.0719424,127.273
'Mounds Park A','DeLaSalle Invitational Academic Tournament Of Middle Schools','MS-06',2013-04-06,22.40,4.82456,10.1754,0.877193,15.49,0.0701754,0.135965,0.0921053,362.079
'Mounds Park B','Lockout Affair Requiring Grade Eight Seven Six Entrants','MS-12',2014-12-13,14.00,1.66667,6.66667,2.4359,14.85,0.0512821,0.320513,0.0576923,110.64
'Mounds Park B','DeLaSalle Invitational Academic Tournament Of Middle Schools','MS-06',2013-04-06,19.51,3.0,7.125,1.0,15.42,0.08125,0.2875,0.0875,162.055
'Mounds Park C','Lockout Affair Requiring Grade Eight Seven Six Entrants','MS-12',2014-12-13,15.89,0.897436,6.28205,2.30769,14.05,0.115385,0.288462,0.0705128,109.714
'Mounds Park C','DeLaSalle Invitational Academic Tournament Of Middle Schools','MS-06',2013-04-06,19.82,2.33184,7.713,1.07623,18.13,0.130045,0.282511,0.0807175,155.293
'Mounds Park D','Lockout Affair Requiring Grade Eight Seven Six Entrants','MS-12',2014-12-13,20.74,4.97608,6.69856,1.5311,15.02,0.0909091,0.186603,0.105263,205.211
'Mounds Park D','DeLaSalle Invitational Academic Tournament Of Middle Schools','MS-06',2013-04-06,9.29,0.451128,5.86466,0.150376,16.09,0.0676692,0.398496,0.075188,97.998
'Mounds Park E','Lockout Affair Requiring Grade Eight Seven Six Entrants','MS-12',2014-12-13,12.68,1.33333,4.74074,0.888889,13.62,0.0592593,0.362963,0.0666667,99.0694
'Mount Nittany A','Manheim Township Middle School Academic Challenge','MS-05',2013-01-19,24.51,5.75,7.0,1.5,17.13,0.1375,0.16875,0.1125,227.086
'Mount Nittany A','3rd Annual Hilltopper Spring Invitational','MS-06',2013-02-23,23.58,6.79245,7.79874,1.76101,13.90,0.0754717,0.125786,0.0628931,289.355
'Muirlands A','Warhawk III Middle School Invitational','MS-11',2014-12-07,22.69,2.44444,6.44444,3.0,18.16,0.183333,0.283333,0.0333333,150.116
'Muirlands B','Warhawk III Middle School Invitational','MS-11',2014-12-07,18.43,4.0,7.125,2.125,12.35,0.0875,0.20625,0.0875,212.824
'Muirlands C','Warhawk III Middle School Invitational','MS-11',2014-12-07,8.41,1.2,3.2,0.8,18.01,0.11,0.49,0.1,54.6702
'Nativity of Our Lord A','Lockout Affair Requiring Grade Eight Seven Six Entrants','MS-12',2014-12-13,19.69,2.81553,8.25243,1.45631,15.67,0.0970874,0.218447,0.0728155,191.12
'Nativity of Our Lord A','DeLaSalle Invitational Academic Tournament Of Middle Schools','MS-06',2013-04-06,17.59,2.48062,6.51163,1.39535,19.50,0.0852713,0.341085,0.139535,147.977
'Nativity of Our Lord B','Lockout Affair Requiring Grade Eight Seven Six Entrants','MS-12',2014-12-13,19.58,3.33333,5.4321,1.35802,18.47,0.166667,0.246914,0.0617284,152.76
'Nativity of Our Lord B','DeLaSalle Invitational Academic Tournament Of Middle Schools','MS-06',2013-04-06,14.53,2.22222,6.11111,0.666667,19.69,0.111111,0.366667,0.0388889,179.137
'Nativity of Our Lord C','Lockout Affair Requiring Grade Eight Seven Six Entrants','MS-12',2014-12-13,13.82,0.625,4.6875,0.46875,15.14,0.117188,0.453125,0.109375,80.5946
'Nativity of Our Lord D','DeLaSalle Invitational Academic Tournament Of Middle Schools','MS-06',2013-04-06,13.40,0.740741,7.11111,1.77778,11.51,0.0222222,0.325926,0.0518519,138.634
'Newark Charter A','Charter Middle School Challenge','MS-06',2013-03-02,19.77,3.8,9.4,2.0,10.00,0.06,0.18,0.05,293.762
'Newark Charter B','Charter Middle School Challenge','MS-06',2013-03-02,19.60,2.5,8.0,2.0,14.38,0.1,0.3,0.075,195.696
'Newark Charter C','Charter Middle School Challenge','MS-06',2013-03-02,16.31,2.66667,8.16667,1.66667,13.80,0.108333,0.258333,0.05,240.911
'Newark Charter D','Charter Middle School Challenge','MS-06',2013-03-02,19.92,2.16667,8.16667,0.833333,17.87,0.116667,0.3,0.0416667,157.938
'Newark Charter E','Charter Middle School Challenge','MS-06',2013-03-02,12.50,1.6,4.8,1.8,12.05,0.08,0.32,0.01,105.082
'Newark Charter F','Charter Middle School Challenge','MS-06',2013-03-02,15.36,1.66667,7.5,0.833333,12.89,0.0666667,0.241667,0.0666667,135.386
'Newark Charter G','Charter Middle School Challenge','MS-06',2013-03-02,11.84,0.333333,7.83333,0.666667,13.83,0.025,0.3,0.05,113.167
'Northmont A','Solon Middle School Invitational','MS-05',2013-02-17,12.40,0.5,3.66667,1.66667,17.01,0.125,0.475,0.0416667,43.7012
'O. H. Somers A','East Palestine Middle School Invitational','MS-11',2014-11-15,4.21,0.0,2.71429,0.142857,9.99,0.0357143,0.407143,0.0214286,27.9681
'Oak Valley A','Warhawk III Middle School Invitational','MS-11',2014-12-07,20.06,3.55556,6.0,1.55556,20.04,0.194444,0.25,0.0555556,172.293
'Oak Valley B','Warhawk III Middle School Invitational','MS-11',2014-12-07,15.51,2.125,5.25,1.25,19.48,0.1125,0.34375,0.08125,141.12
'Odyssey Charter A','Charter Middle School Challenge','MS-06',2013-03-02,8.57,0.333333,4.33333,1.0,10.79,0.0666667,0.45,0.025,56.1091
'Odyssey Charter B','Charter Middle School Challenge','MS-06',2013-03-02,2.50,0.25,2.75,0.5,13.04,0.0625,0.4875,0.075,31.2494
'Olmsted Falls A','Solon Middle School Invitational','MS-05',2013-02-17,18.48,2.5,8.5,0.833333,18.27,0.0833333,0.216667,0.075,184.058
'Olmsted Falls B','Solon Middle School Invitational','MS-05',2013-02-17,13.40,0.428571,7.14286,0.714286,16.36,0.128571,0.371429,0.0857143,137.859
'Olmsted Falls C','Solon Middle School Invitational','MS-05',2013-02-17,17.12,2.43902,7.15447,0.97561,16.71,0.0731707,0.317073,0.0569106,178.236
'P. S. duPont A','Charter Middle School Challenge','MS-06',2013-03-02,10.70,1.5,5.66667,1.16667,12.95,0.0916667,0.366667,0.075,148.507
'Parish Episcopal A','TQBA Panther Challenge','MS-05',2013-01-12,13.90,0.714286,5.14286,1.71429,15.30,0.0642857,0.485714,0.0785714,79.0959
'Patton A','Great Valley Middle School Quiz Bowl Tournament','MS-11',2014-12-06,19.61,2.9,7.3,2.8,16.99,0.09,0.25,0.07,306.007
'Patton B','Great Valley Middle School Quiz Bowl Tournament','MS-11',2014-12-06,18.72,3.0,6.4,1.8,18.58,0.195,0.235,0.085,146.758
'Patton C','Great Valley Middle School Quiz Bowl Tournament','MS-11',2014-12-06,12.84,0.6,4.5,2.4,14.27,0.075,0.4,0.125,100.967
'Paul Knox A','Dorman Fall Tournament','MS-11',2014-11-01,16.23,0.972222,8.61111,0.972222,14.35,0.0625,0.256944,0.0763889,110.865
'Paul Knox B','Dorman Fall Tournament','MS-11',2014-11-01,11.67,0.353982,3.89381,0.707965,16.51,0.079646,0.415929,0.079646,44.6789
'Pi-oneers A','Stratford-Santa Clara Middle School Invitational','MS-11',2014-12-13,20.00,4.625,6.0,1.75,18.25,0.13125,0.16875,0.10625,182.223
'Presbyterian A','TQBA Winter Junior Rodeo Challenge','MS-06',2013-02-16,16.43,1.5,6.66667,1.5,15.00,0.108333,0.308333,0.075,91.5635
'Quail Valley A','TQBA Middle School Holiday Hoedown','MS-12',2014-12-06,17.98,3.0,4.42857,1.57143,17.97,0.135714,0.328571,0.0714286,109.299
'Quail Valley B','TQBA Middle School Holiday Hoedown','MS-12',2014-12-06,18.78,2.44444,5.77778,1.44444,14.91,0.15,0.283333,0.0388889,155.202
'Quail Valley C','TQBA Middle School Holiday Hoedown','MS-12',2014-12-06,18.99,2.88889,7.0,1.66667,17.43,0.111111,0.266667,0.0888889,217.163
'Quest Academy A','Gladiator Fall Tournament 2014','MS-11',2014-11-08,23.51,6.4,7.0,1.4,15.90,0.165,0.115,0.055,300.004
'Quest Academy A','Keith Invitational Tournament','MS-05',2013-01-21,21.60,3.88889,7.88889,2.44444,17.55,0.133333,0.211111,0.105556,357.881
'Quest Academy A','Gladiator Open 2013','MS-06',2013-03-23,23.80,5.625,5.875,3.5,16.86,0.1125,0.2375,0.1,275.741
'Quest Academy B','Gladiator Fall Tournament 2014','MS-11',2014-11-08,18.67,2.88889,7.0,1.33333,18.67,0.163158,0.221053,0.0894737,207.454
'Quest Academy B','Keith Invitational Tournament','MS-05',2013-01-21,17.97,3.11111,5.11111,2.88889,19.28,0.161111,0.322222,0.0722222,136.469
'Quest Academy B','Gladiator Open 2013','MS-06',2013-03-23,19.86,2.375,6.875,1.25,17.54,0.0875,0.35,0.075,164.202
'Quest Academy C','Keith Invitational Tournament','MS-05',2013-01-21,16.15,1.55556,5.66667,1.22222,17.83,0.133333,0.333333,0.144444,117.619
'Rawlinson A','TQBA Middle School Kickoff - San Antonio','MS-11',2014-10-11,12.79,1.7,6.9,1.2,16.80,0.115,0.275,0.11,142.493
'Rawlinson B','TQBA Middle School Kickoff - San Antonio','MS-11',2014-10-11,12.65,0.625,3.625,0.75,17.24,0.13125,0.4125,0.13125,65.4173
'Rawlinson C','TQBA Middle School Kickoff - San Antonio','MS-11',2014-10-11,9.35,0.375,3.5,0.875,16.83,0.11875,0.45,0.08125,50.6711
'Rawlinson Middle A','TQBA Patriot Games','MS-12',2014-12-06,16.46,1.25,8.625,1.375,15.48,0.05625,0.275,0.05625,177.241
'Rawlinson Middle B','TQBA Patriot Games','MS-12',2014-12-06,13.26,1.0,5.57143,1.85714,17.92,0.135714,0.392857,0.0428571,79.4914
'Rawlinson Middle C','TQBA Patriot Games','MS-12',2014-12-06,12.59,0.142857,3.71429,0.285714,18.19,0.114286,0.435714,0.0857143,43.4999
'Renaissance Academy A','Great Valley Middle School Quiz Bowl Tournament','MS-11',2014-12-06,17.60,2.6,4.9,2.0,15.08,0.105,0.345,0.11,97.5174
'Renaissance Academy B','Great Valley Middle School Quiz Bowl Tournament','MS-11',2014-12-06,9.77,0.4,3.9,1.6,14.82,0.075,0.425,0.08,45.6352
'Renaissance Academy C','Great Valley Middle School Quiz Bowl Tournament','MS-11',2014-12-06,11.72,1.0,5.4,2.6,15.39,0.085,0.34,0.075,77.0269
'Rockcastle County A','Campbell County Middle School Classic','MS-12',2014-10-25,15.80,2.75,5.875,2.5,18.53,0.125,0.31875,0.075,158.949
'Rockcastle County B','Campbell County Middle School Classic','MS-12',2014-10-25,10.79,0.5,4.25,0.375,15.59,0.11875,0.4,0.08125,88.0626
'Rockcastle County C','Campbell County Middle School Classic','MS-12',2014-10-25,9.70,0.75,3.375,0.0,14.67,0.09375,0.4,0.125,53.4402
'Rockwood A','3rd Annual Hilltopper Spring Invitational','MS-06',2013-02-23,8.89,0.254777,5.47771,0.509554,12.77,0.0700637,0.375796,0.044586,68.7992
'Rockwood A','Rockwood Middle School Invitational','MS-04',2013-04-06,10.30,0.25974,4.02597,0.25974,12.16,0.0844156,0.38961,0.0519481,50.361
'Rockwood B','3rd Annual Hilltopper Spring Invitational','MS-06',2013-02-23,8.14,0.810811,5.0,0.135135,9.52,0.00675676,0.391892,0.0135135,71.9544
'Rockwood B','Rockwood Middle School Invitational','MS-04',2013-04-06,9.80,0.56338,6.47887,0.704225,12.71,0.0915493,0.274648,0.028169,92.8126
'Rockwood C','3rd Annual Hilltopper Spring Invitational','MS-06',2013-02-23,11.41,0.254777,3.82166,0.0,10.49,0.0636943,0.382166,0.0382166,46.3135
'Rockwood C','Rockwood Middle School Invitational','MS-04',2013-04-06,10.19,0.636943,6.24204,0.509554,13.20,0.0764331,0.254777,0.044586,86.472
'Rockwood/Berlin D','Rockwood Middle School Invitational','MS-04',2013-04-06,9.39,0.405405,6.21622,0.405405,12.18,0.0810811,0.277027,0.0608108,81.51
'Roosevelt A','Warhawk III Middle School Invitational','MS-11',2014-12-07,6.79,0.428571,3.57143,1.42857,17.14,0.121429,0.4,0.0928571,49.0996
'Roosevelt B','Warhawk III Middle School Invitational','MS-11',2014-12-07,10.27,0.285714,5.0,0.857143,13.42,0.114286,0.407143,0.0785714,61.6748
'Saint Ambrose A','DeLaSalle Invitational Academic Tournament Of Middle Schools','MS-06',2013-04-06,14.25,0.672269,6.05042,1.68067,19.91,0.092437,0.436975,0.092437,77.8805
'Saint Andrew's A','2013 Bellarmine Middle School Invitational','MS-05',2013-02-02,17.92,1.71429,9.28571,1.71429,16.36,0.128571,0.228571,0.0857143,209.407
'Saint Andrew's B','2013 Bellarmine Middle School Invitational','MS-05',2013-02-02,14.75,1.57143,4.14286,1.57143,16.28,0.1,0.471429,0.0857143,71.9118
'Seven Lakes A','TQBA Winter Junior Rodeo Challenge','MS-06',2013-02-16,18.80,4.625,6.875,1.75,16.76,0.10625,0.225,0.05,274.168
'Seven Lakes B','TQBA Winter Junior Rodeo Challenge','MS-06',2013-02-16,20.00,3.28571,6.57143,1.71429,17.09,0.142857,0.242857,0.0428571,163.589
'Shue Medill A','Charter Middle School Challenge','MS-06',2013-03-02,5.00,0.0,3.0,0.0,16.53,0.125,0.5,0.0625,32.4324
'Smith Middle A','Millbrook Fall Tournament','MS-10',2014-10-25,21.69,5.0,6.125,3.0,16.74,0.1125,0.2125,0.06875,261.948
'Somerset A','3rd Annual Hilltopper Spring Invitational','MS-06',2013-02-23,14.88,2.27545,7.30539,2.75449,10.72,0.0838323,0.293413,0.0359281,127.112
'Somerset A','Rockwood Middle School Invitational','MS-04',2013-04-06,17.34,4.66165,7.21805,1.95489,9.70,0.0601504,0.203008,0.037594,219.621
'Somerset B','3rd Annual Hilltopper Spring Invitational','MS-06',2013-02-23,7.50,0.402685,4.69799,0.268456,9.60,0.0805369,0.389262,0.0134228,56.8664
'Somerset B','Rockwood Middle School Invitational','MS-04',2013-04-06,12.11,0.680272,4.4898,0.952381,12.09,0.122449,0.346939,0.0612245,76.0429
'Somerset C','3rd Annual Hilltopper Spring Invitational','MS-06',2013-02-23,10.19,0.361446,6.0241,0.361446,12.28,0.060241,0.271084,0.0301205,76.6799
'South Range A','East Palestine Middle School Invitational','MS-11',2014-11-15,14.38,2.14286,7.0,1.85714,11.62,0.05,0.192857,0.0285714,121.686
'Spectrum A','Lockout Affair Requiring Grade Eight Seven Six Entrants','MS-12',2014-12-13,12.73,0.740741,5.77778,1.48148,16.83,0.133333,0.296296,0.0962963,123.531
'St. Anselm's B','Centennial Invitational','IS-141A',2014-11-09,16.14,2.44444,6.77778,2.11111,10.04,0.0777778,0.211111,0.05,149.219
'St. Augustine A','Centennial Invitational','IS-141A',2014-11-09,4.58,0.444444,4.88889,0.444444,7.60,0.0277778,0.311111,0.05,87.9613
'St. Augustine A','Great Valley Middle School Quiz Bowl Tournament','MS-11',2014-12-06,15.69,1.5,5.7,1.0,16.69,0.135,0.32,0.04,175.622
'St. Augustine A','Manheim Township Middle School Academic Challenge','MS-05',2013-01-19,20.29,4.28571,5.57143,3.0,17.15,0.192857,0.207143,0.0571429,160.634
'St. Augustine A','Charter Middle School Challenge','MS-06',2013-03-02,21.38,3.71429,8.71429,3.0,18.01,0.1,0.221429,0.0928571,293.634
'St. Augustine B','Manheim Township Middle School Academic Challenge','MS-05',2013-01-19,12.55,1.57143,5.14286,3.14286,18.17,0.121429,0.392857,0.05,83.2107
'St. Augustine B','Charter Middle School Challenge','MS-06',2013-03-02,14.88,1.2,7.4,2.6,15.92,0.02,0.4,0.07,119.138
'St. Charles Borromeo A','Lockout Affair Requiring Grade Eight Seven Six Entrants','MS-12',2014-12-13,9.29,0.444444,3.7037,1.03704,15.08,0.118519,0.385185,0.133333,45.49
'St. Charles Borromeo A','DeLaSalle Invitational Academic Tournament Of Middle Schools','MS-06',2013-04-06,17.78,0.933333,7.46667,0.666667,17.70,0.126667,0.32,0.08,235.734
'St. Clare of Assisi A','TQBA Middle School Kickoff - Houston','MS-11',2014-10-18,19.87,3.5,5.875,1.875,20.63,0.19375,0.24375,0.075,117.349
'St. Clare of Assisi A','TQBA Middle School Holiday Hoedown','MS-12',2014-12-06,19.59,5.7,5.3,1.7,16.09,0.145,0.19,0.04,156.274
'St. Clare of Assisi A','TQBA Winter Junior Rodeo Challenge','MS-06',2013-02-16,17.07,1.42857,6.85714,3.0,16.68,0.114286,0.328571,0.107143,108.409
'St. Clare of Assisi B','TQBA Winter Junior Rodeo Challenge','MS-06',2013-02-16,14.81,0.5,4.0,0.5,16.47,0.141667,0.5,0.0416667,52.3705
'St. Dominic Savio A','TQBA Winter Junior Rodeo Challenge','MS-06',2013-02-16,22.35,3.125,7.5,1.625,19.67,0.125,0.25,0.05625,244.28
'St. Francis de Sales A','TQBA Middle School Holiday Hoedown','MS-12',2014-12-06,10.62,0.142857,3.28571,0.571429,20.06,0.207143,0.471429,0.0571429,46.3977
'St. Genevieve A','2nd Annual Detroit Catholic Central Middle School Tournament','MS-06',2013-03-09,13.39,0.875,6.875,0.75,14.62,0.05625,0.41875,0.05,133.15
'St. Genevieve B','2nd Annual Detroit Catholic Central Middle School Tournament','MS-06',2013-03-09,10.93,0.125,5.25,0.875,15.38,0.06875,0.46875,0.05,87.1187
'St. Helen A','TQBA Winter Junior Rodeo Challenge','MS-06',2013-02-16,11.82,1.16667,2.5,2.66667,18.79,0.108333,0.6,0.0916667,52.9604
'St. John-New Brighton A','DeLaSalle Invitational Academic Tournament Of Middle Schools','MS-06',2013-04-06,18.52,1.87919,9.93289,0.939597,11.61,0.0738255,0.221477,0.0402685,218.881
'St. John-New Brighton B','DeLaSalle Invitational Academic Tournament Of Middle Schools','MS-06',2013-04-06,15.11,1.47541,6.22951,1.14754,14.59,0.0655738,0.434426,0.057377,104.811
'St. John's A','TQBA Middle School Kickoff - Houston','MS-11',2014-10-18,24.91,7.66667,4.77778,2.33333,18.71,0.177778,0.144444,0.0222222,292.044
'St. John's A','TQBA Winter Junior Rodeo Challenge','MS-06',2013-02-16,20.94,3.0,4.57143,0.714286,21.87,0.242857,0.307143,0.1,155.774
'St. John's B','TQBA Middle School Kickoff - Houston','MS-11',2014-10-18,21.23,5.375,7.875,2.125,16.19,0.08125,0.1375,0.0375,496.787
'St. John's C','TQBA Middle School Holiday Hoedown','MS-12',2014-12-06,20.81,2.75,7.25,1.5,19.81,0.125,0.23125,0.05,221.641
'St. Joseph A','TQBA Big-D Challenge','MS-11',2014-09-13,15.00,1.0,4.0,0.833333,17.99,0.116667,0.475,0.0833333,80.1826
'St. Joseph A','Campbell County Middle School Classic','MS-12',2014-10-25,18.78,4.0,6.25,2.0,18.74,0.175,0.2,0.05,219.266
'St. Joseph A','East Palestine Middle School Invitational','MS-11',2014-11-15,14.50,1.71429,6.85714,1.14286,13.57,0.0785714,0.185714,0.05,114.372
'St. Joseph A','TQBA Lions' Den Invitational I','MS-12',2014-11-15,13.96,0.75,5.25,0.875,19.16,0.14375,0.36875,0.0875,88.5007
'St. Joseph A','TQBA Big-D Challenge','MS-11',2014-09-13,15.00,1.0,4.0,0.833333,17.99,0.116667,0.475,0.0833333,80.1826
'St. Joseph A','TQBA Panther Challenge','MS-05',2013-01-12,13.80,1.42857,5.14286,1.85714,17.69,0.0785714,0.464286,0.0642857,99.6561
'St. Joseph B','East Palestine Middle School Invitational','MS-11',2014-11-15,6.30,0.571429,3.28571,0.571429,10.25,0.0642857,0.314286,0.0428571,52.1323
'St. Laurence A','TQBA Middle School Kickoff - Houston','MS-11',2014-10-18,18.03,1.75,6.5,2.625,16.25,0.175,0.26875,0.04375,142.123
'St. Laurence A','TQBA Middle School Holiday Hoedown','MS-12',2014-12-06,18.89,2.28571,5.42857,1.57143,17.53,0.142857,0.357143,0.05,113.871
'St. Laurence A','TQBA Winter Junior Rodeo Challenge','MS-06',2013-02-16,16.79,2.375,7.75,2.0,15.83,0.06875,0.3125,0.08125,133.019
'St. Mark A','TQBA Lions' Den Invitational I','MS-12',2014-11-15,17.86,1.42857,4.57143,0.142857,15.01,0.1,0.407143,0.0857143,81.941
'St. Mark B','TQBA Lions' Den Invitational I','MS-12',2014-11-15,21.41,2.5,5.5,2.375,20.00,0.1875,0.28125,0.03125,104.373
'St. Mark C','TQBA Lions' Den Invitational I','MS-12',2014-11-15,14.10,1.0,4.57143,1.71429,14.19,0.0857143,0.421429,0.0928571,61.8247
'St. Mark's School of Texas A','TQBA Big-D Challenge','MS-11',2014-09-13,21.12,4.75,7.5,3.0,12.09,0.10625,0.125,0.05625,242.185
'St. Mark's School of Texas A','TQBA Lions' Den Invitational I','MS-12',2014-11-15,22.57,5.5,7.125,2.5,18.06,0.1,0.19375,0.0875,279.068
'St. Mark's School of Texas A','TQBA Big-D Challenge','MS-11',2014-09-13,21.12,4.75,7.5,3.0,12.09,0.10625,0.125,0.05625,242.185
'St. Mark's School of Texas A','TQBA Panther Challenge','MS-05',2013-01-12,22.34,4.44444,9.33333,2.11111,17.25,0.0555556,0.15,0.0944444,244.808
'St. Mark's School of Texas B','TQBA Big-D Challenge','MS-11',2014-09-13,20.00,3.125,7.875,1.125,15.20,0.13125,0.2,0.0625,202.136
'St. Mark's School of Texas B','TQBA Lions' Den Invitational I','MS-12',2014-11-15,21.18,4.6,7.3,2.3,15.40,0.1,0.165,0.075,247.704
'St. Mark's School of Texas B','TQBA Big-D Challenge','MS-11',2014-09-13,20.00,3.125,7.875,1.125,15.20,0.13125,0.2,0.0625,202.136
'St. Mark's School of Texas C','TQBA Big-D Challenge','MS-11',2014-09-13,20.90,5.22222,5.88889,1.44444,14.89,0.161111,0.138889,0.05,207.546
'St. Mark's School of Texas C','TQBA Lions' Den Invitational I','MS-12',2014-11-15,17.91,2.14286,7.42857,2.71429,16.94,0.0928571,0.25,0.0928571,149.859
'St. Mark's School of Texas C','TQBA Big-D Challenge','MS-11',2014-09-13,20.90,5.22222,5.88889,1.44444,14.89,0.161111,0.138889,0.05,207.546
'St. Mark's School of Texas D','TQBA Big-D Challenge','MS-11',2014-09-13,14.31,1.66667,4.33333,2.0,17.47,0.141667,0.366667,0.0416667,69.6716
'St. Mark's School of Texas D','TQBA Lions' Den Invitational I','MS-12',2014-11-15,16.25,1.57143,4.14286,2.14286,17.60,0.135714,0.378571,0.0428571,65.9158
'St. Mark's School of Texas D','TQBA Big-D Challenge','MS-11',2014-09-13,14.31,1.66667,4.33333,2.0,17.47,0.141667,0.366667,0.0416667,69.6716
'St. Mark's School of Texas F','St. Mark's School of Texas Invitational','MS-06',2013-03-02,17.22,2.33333,5.66667,2.22222,17.56,0.144444,0.327778,0.0944444,98.1665
'St. Mark's School of Texas G','St. Mark's School of Texas Invitational','MS-06',2013-03-02,16.62,2.75,5.375,2.75,17.79,0.1,0.3875,0.075,147.649
'St. Mary's Visitation A','Gladiator Fall Tournament 2014','MS-11',2014-11-08,18.12,3.22222,6.11111,3.55556,19.38,0.168421,0.226316,0.0842105,203.272
'St. Mary's Visitation A','Keith Invitational Tournament','MS-05',2013-01-21,16.18,2.44444,6.0,2.33333,18.66,0.183333,0.261111,0.0722222,155.939
'St. Mary's Visitation A','Gladiator Open 2013','MS-06',2013-03-23,20.60,5.625,5.875,2.375,14.57,0.15,0.18125,0.0375,239.033
'St. Mary's Visitation B','Gladiator Fall Tournament 2014','MS-11',2014-11-08,13.93,1.55556,5.22222,2.88889,16.08,0.111111,0.322222,0.0888889,131.51
'St. Mary's Visitation B','Keith Invitational Tournament','MS-05',2013-01-21,16.75,2.55556,6.0,2.0,20.08,0.177778,0.3,0.0777778,166.594
'St. Mary's Visitation B','Gladiator Open 2013','MS-06',2013-03-23,14.91,1.0,5.875,0.75,20.00,0.14375,0.3625,0.09375,89.7491
'St. Mary's Visitation C','Gladiator Fall Tournament 2014','MS-11',2014-11-08,13.77,1.55556,4.33333,2.11111,17.92,0.122222,0.361111,0.0722222,109.349
'St. Mary's Visitation C','Keith Invitational Tournament','MS-05',2013-01-21,14.37,1.66667,5.33333,2.55556,17.40,0.183333,0.327778,0.0722222,119.689
'St. Mary's Visitation C','Gladiator Open 2013','MS-06',2013-03-23,15.60,2.25,7.125,1.875,14.09,0.1625,0.25,0.14375,151.893
'St. Mary's Visitation D','Gladiator Fall Tournament 2014','MS-11',2014-11-08,13.67,1.33333,5.77778,1.22222,16.79,0.161111,0.277778,0.122222,138.794
'St. Mary's Visitation D','Gladiator Open 2013','MS-06',2013-03-23,16.81,2.25,6.375,1.75,16.16,0.125,0.31875,0.1125,123.801
'St. Mary's Visitation E','Gladiator Fall Tournament 2014','MS-11',2014-11-08,16.02,1.22222,4.77778,1.66667,14.39,0.127778,0.344444,0.105556,102.69
'St. Mary's Visitation E','Gladiator Open 2013','MS-06',2013-03-23,11.28,0.5,4.875,2.0,16.39,0.1625,0.3625,0.10625,56.1168
'St. Mary's Visitation F','Gladiator Open 2013','MS-06',2013-03-23,11.36,1.25,4.25,2.25,18.53,0.11875,0.425,0.08125,56.3209
'St. Michael A','Detroit Catholic Central Middle School Fall Tournament','MS-11',2014-11-01,19.12,2.44444,7.66667,1.11111,13.08,0.1,0.233333,0.0222222,180.438
'St. Michael A','2nd Annual Detroit Catholic Central Middle School Tournament','MS-06',2013-03-09,17.97,1.625,7.625,2.0,14.61,0.09375,0.3,0.11875,157.338
'St. Michael A','The Blessed Angela Quiz Tournament','MS-04',2013-03-16,18.80,3.10559,9.31677,2.48447,15.81,0.0496894,0.223602,0.0621118,257.748
'St. Michael B','Detroit Catholic Central Middle School Fall Tournament','MS-11',2014-11-01,14.31,1.375,7.625,0.875,12.76,0.0625,0.24375,0.0375,165.433
'St. Michael B','2nd Annual Detroit Catholic Central Middle School Tournament','MS-06',2013-03-09,15.99,2.55556,7.55556,1.22222,16.44,0.0888889,0.244444,0.0722222,196.411
'St. Michael B','The Blessed Angela Quiz Tournament','MS-04',2013-03-16,17.41,3.13253,7.10843,2.77108,14.36,0.060241,0.271084,0.0662651,199.349
'St. Michael C','Detroit Catholic Central Middle School Fall Tournament','MS-11',2014-11-01,12.82,1.5,7.375,1.5,10.95,0.0375,0.2625,0.05625,171.489
'St. Michael C','2nd Annual Detroit Catholic Central Middle School Tournament','MS-06',2013-03-09,13.38,1.0,7.125,1.5,14.82,0.025,0.3375,0.0625,121.24
'St. Michael D','Detroit Catholic Central Middle School Fall Tournament','MS-11',2014-11-01,9.43,0.5,6.125,1.0,12.74,0.1,0.36875,0.06875,117.977
'St. Monica A','TQBA Big-D Challenge','MS-11',2014-09-13,22.85,6.22222,8.22222,1.22222,18.15,0.0666667,0.122222,0.0777778,339.356
'St. Monica A','TQBA Lions' Den Invitational I','MS-12',2014-11-15,21.81,4.3,8.4,0.9,16.39,0.12,0.14,0.07,290.749
'St. Monica A','TQBA Big-D Challenge','MS-11',2014-09-13,22.85,6.22222,8.22222,1.22222,18.15,0.0666667,0.122222,0.0777778,339.356
'St. Monica A','TQBA Panther Challenge','MS-05',2013-01-12,16.76,1.14286,6.14286,0.857143,18.72,0.157143,0.364286,0.05,131.769
'St. Monica A','St. Mark's School of Texas Invitational','MS-06',2013-03-02,20.33,3.25,8.0,2.125,16.86,0.10625,0.225,0.075,201.266
'St. Monica B','TQBA Big-D Challenge','MS-11',2014-09-13,18.00,1.66667,4.16667,1.16667,18.72,0.0916667,0.433333,0.0666667,97.3829
'St. Monica B','TQBA Lions' Den Invitational I','MS-12',2014-11-15,18.05,1.42857,4.42857,1.0,20.71,0.15,0.407143,0.0785714,78.7657
'St. Monica B','TQBA Big-D Challenge','MS-11',2014-09-13,18.00,1.66667,4.16667,1.16667,18.72,0.0916667,0.433333,0.0666667,97.3829
'St. Monica B','TQBA Panther Challenge','MS-05',2013-01-12,12.65,1.0,4.66667,0.166667,16.38,0.116667,0.416667,0.0916667,80.1558
'St. Monica B','St. Mark's School of Texas Invitational','MS-06',2013-03-02,15.36,2.75,4.25,1.375,17.59,0.1125,0.39375,0.08125,108.733
'St. Monica C','TQBA Big-D Challenge','MS-11',2014-09-13,9.52,1.0,2.5,2.16667,18.28,0.166667,0.45,0.1,38.5875
'St. Monica C','TQBA Lions' Den Invitational I','MS-12',2014-11-15,12.67,1.42857,5.0,3.0,18.11,0.0857143,0.4,0.0642857,88.3772
'St. Monica C','TQBA Big-D Challenge','MS-11',2014-09-13,9.52,1.0,2.5,2.16667,18.28,0.166667,0.45,0.1,38.5875
'St. Monica C','St. Mark's School of Texas Invitational','MS-06',2013-03-02,15.14,1.36364,5.18182,1.0,15.51,0.168182,0.368182,0.0818182,83.5717
'St. Monica D','TQBA Big-D Challenge','MS-11',2014-09-13,11.00,0.666667,4.33333,1.0,19.50,0.116667,0.325,0.108333,80.9516
'St. Monica D','TQBA Lions' Den Invitational I','MS-12',2014-11-15,11.52,1.0,4.75,1.25,16.67,0.15,0.33125,0.10625,77.0002
'St. Monica D','TQBA Big-D Challenge','MS-11',2014-09-13,11.00,0.666667,4.33333,1.0,19.50,0.116667,0.325,0.108333,80.9516
'St. Patrick A','Detroit Catholic Central Middle School Fall Tournament','MS-11',2014-11-01,14.81,2.625,7.0,2.5,11.33,0.03125,0.24375,0.05625,108.126
'St. Patrick A','2nd Annual Detroit Catholic Central Middle School Tournament','MS-06',2013-03-09,18.75,3.0,8.11111,2.66667,14.56,0.0555556,0.25,0.0611111,199.003
'St. Patrick A','The Blessed Angela Quiz Tournament','MS-04',2013-03-16,15.14,2.1519,6.96203,2.1519,17.86,0.101266,0.28481,0.101266,139.114
'St. Pius X A','Campbell County Middle School Classic','MS-12',2014-10-25,12.17,0.875,4.875,0.875,16.62,0.175,0.31875,0.11875,74.0087
'St. Pius X B','Campbell County Middle School Classic','MS-12',2014-10-25,9.75,0.5,4.5,0.5,15.69,0.1125,0.39375,0.05,61.1975
'St. Raphael A','The Blessed Angela Quiz Tournament','MS-04',2013-03-16,17.54,0.869565,6.21118,0.869565,15.92,0.118012,0.372671,0.10559,100.333
'St. Raymond A','Keith Invitational Tournament','MS-05',2013-01-21,22.41,6.22222,6.22222,0.555556,19.16,0.155556,0.166667,0.0888889,199.816
'St. Raymond A','Gladiator Open 2013','MS-06',2013-03-23,23.56,6.625,6.375,1.0,17.01,0.1,0.20625,0.10625,198.535
'St. Rose of Lima A','DeLaSalle Invitational Academic Tournament Of Middle Schools','MS-06',2013-04-06,15.32,1.11111,6.34921,1.26984,16.79,0.126984,0.365079,0.103175,99.0841
'St. Stephen's Episcopal A','Manheim Township Middle School Academic Challenge','MS-05',2013-01-19,17.39,2.0,8.14286,2.42857,17.95,0.114286,0.271429,0.0785714,165.816
'St. Stephen's Episcopal B','Manheim Township Middle School Academic Challenge','MS-05',2013-01-19,11.56,1.0,5.42857,0.714286,15.47,0.0642857,0.407143,0.0714286,80.4109
'St. Stephen's Episcopal C','Manheim Township Middle School Academic Challenge','MS-05',2013-01-19,12.92,0.428571,3.0,0.571429,18.94,0.0857143,0.514286,0.0714286,37.143
'St. Theresa's A','TQBA Capital City Challenge','MS-11',2014-09-20,26.47,7.66667,7.44444,1.44444,15.79,0.116667,0.0722222,0.0388889,416.932
'St. Theresa's A','TQBA Patriot Games','MS-12',2014-12-06,13.44,0.75,6.875,2.375,16.38,0.1,0.325,0.06875,95.2168
'St. Theresa's A','TQBA Winter Junior Rodeo Challenge','MS-06',2013-02-16,16.76,2.28571,7.85714,1.0,17.55,0.0857143,0.307143,0.107143,170.77
'St. Theresa's B','TQBA Capital City Challenge','MS-11',2014-09-20,22.91,3.375,6.5,2.125,17.25,0.25,0.1625,0.075,170.161
'St. Theresa's B','TQBA Patriot Games','MS-12',2014-12-06,15.20,0.857143,6.28571,1.0,20.16,0.121429,0.364286,0.0785714,98.0017
'St. Theresa's C','TQBA Capital City Challenge','MS-11',2014-09-20,14.58,0.285714,6.57143,2.0,18.36,0.164286,0.328571,0.1,81.1431
'St. Theresa's C','TQBA Patriot Games','MS-12',2014-12-06,9.74,0.428571,5.0,1.0,16.45,0.05,0.442857,0.0714286,63.3089
'St. Theresa's D','TQBA Capital City Challenge','MS-11',2014-09-20,15.65,0.0,3.83333,0.833333,18.89,0.258333,0.358333,0.133333,46.9743
'St. Theresa's D','TQBA Patriot Games','MS-12',2014-12-06,13.44,0.714286,3.85714,1.0,16.43,0.128571,0.478571,0.05,53.6019
'St. Theresa's E','TQBA Capital City Challenge','MS-11',2014-09-20,9.23,0.666667,3.66667,0.166667,16.23,0.166667,0.408333,0.0416667,67.1207
'St. Therese A','DeLaSalle Invitational Academic Tournament Of Middle Schools','MS-06',2013-04-06,14.52,0.970874,7.18447,1.5534,15.16,0.0873786,0.407767,0.038835,116.09
'St. Thomas A','Campbell County Middle School Classic','MS-12',2014-10-25,18.75,2.625,4.375,0.875,20.82,0.225,0.2875,0.14375,85.9317
'St. Thomas Academy A','Lockout Affair Requiring Grade Eight Seven Six Entrants','MS-12',2014-12-13,16.15,1.27389,5.35032,2.16561,15.80,0.11465,0.343949,0.0509554,82.8986
'St. Thomas Academy A','DeLaSalle Invitational Academic Tournament Of Middle Schools','MS-06',2013-04-06,21.75,3.01676,7.82123,3.12849,16.27,0.0949721,0.26257,0.027933,199.832
'St. Thomas Academy B','Lockout Affair Requiring Grade Eight Seven Six Entrants','MS-12',2014-12-13,10.00,0.729927,2.77372,1.16788,15.45,0.116788,0.481752,0.0656934,54.9427
'St. Thomas Academy B','DeLaSalle Invitational Academic Tournament Of Middle Schools','MS-06',2013-04-06,12.14,0.36036,4.68468,0.900901,16.07,0.108108,0.405405,0.117117,57.398
'St. Thomas More A','TQBA Middle School Kickoff - Houston','MS-11',2014-10-18,15.51,2.0,7.85714,1.0,14.59,0.0857143,0.257143,0.0714286,262.56
'St. Thomas More A','TQBA Winter Junior Rodeo Challenge','MS-06',2013-02-16,17.75,1.44444,9.88889,0.777778,15.53,0.0833333,0.238889,0.0944444,205.633
'St. Thomas More A','DeLaSalle Invitational Academic Tournament Of Middle Schools','MS-06',2013-04-06,17.10,1.31579,7.76316,1.31579,16.01,0.118421,0.296053,0.0921053,169.773
'St. Thomas More B','TQBA Winter Junior Rodeo Challenge','MS-06',2013-02-16,16.73,1.0,6.42857,0.285714,15.45,0.0714286,0.414286,0.0571429,117.918
'St. Thomas More B','DeLaSalle Invitational Academic Tournament Of Middle Schools','MS-06',2013-04-06,17.65,2.53521,7.04225,1.26761,14.81,0.084507,0.323944,0.0422535,152.752
'St. Thomas More C','DeLaSalle Invitational Academic Tournament Of Middle Schools','MS-06',2013-04-06,7.62,0.333333,3.16667,0.333333,18.10,0.075,0.491667,0.0333333,51.3669
'St. Thomas' Episcopal A','TQBA Middle School Kickoff - Houston','MS-11',2014-10-18,12.92,1.28571,5.57143,2.85714,16.76,0.15,0.307143,0.0571429,77.8609
'St. Thomas' Episcopal A','TQBA Middle School Holiday Hoedown','MS-12',2014-12-06,20.90,3.875,7.25,2.25,18.20,0.1125,0.26875,0.05,230.353
'St. Thomas' Episcopal B','TQBA Middle School Kickoff - Houston','MS-11',2014-10-18,15.97,1.625,6.75,0.75,18.20,0.15625,0.28125,0.1,104.231
'St. Thomas' Episcopal B','TQBA Middle School Holiday Hoedown','MS-12',2014-12-06,6.25,0.571429,2.85714,0.285714,18.58,0.157143,0.464286,0.0642857,53.3121
'St. Thomas' Episcopal C','TQBA Middle School Kickoff - Houston','MS-11',2014-10-18,14.86,0.375,4.0,1.25,17.98,0.10625,0.4875,0.05625,47.4055
'St. Thomas' Episcopal D','TQBA Middle School Kickoff - Houston','MS-11',2014-10-18,7.33,0.142857,2.0,0.142857,19.57,0.25,0.407143,0.05,23.208
'Stillman Elementary A','Charter Middle School Challenge','MS-06',2013-03-02,13.75,2.0,8.66667,1.83333,10.48,0.05,0.225,0.0416667,194.226
'Stratford-Fremont A','Stratford-Santa Clara Middle School Invitational','MS-11',2014-12-13,17.84,2.625,7.5,0.875,20.37,0.15625,0.20625,0.08125,220.046
'Stratford-San Jose A','Stratford-Santa Clara Middle School Invitational','MS-11',2014-12-13,22.61,5.22222,6.88889,1.33333,18.00,0.122222,0.183333,0.0777778,272.995
'Stratford-San Jose A','2013 Bellarmine Middle School Invitational','MS-05',2013-02-02,18.77,1.85714,7.42857,2.42857,17.68,0.157143,0.264286,0.0928571,181.792
'Stratford-San Jose A','Stratford-Santa Clara Middle School Invitational','MS-06',2013-02-23,18.91,4.0,5.85714,2.28571,20.56,0.15,0.264286,0.0714286,203.672
'Stratford-San Jose B','2013 Bellarmine Middle School Invitational','MS-05',2013-02-02,15.53,1.57143,6.57143,1.0,15.85,0.121429,0.364286,0.0857143,150.115
'Stratford-San Jose B','Stratford-Santa Clara Middle School Invitational','MS-06',2013-02-23,17.94,2.71429,6.28571,1.0,19.83,0.164286,0.3,0.135714,184.292
'Stratford-Sunnyvale A','Stratford-Santa Clara Middle School Invitational','MS-11',2014-12-13,23.39,5.75,6.25,2.375,21.15,0.10625,0.19375,0.06875,244.721
'Stratford-Sunnyvale A','2013 Bellarmine Middle School Invitational','MS-05',2013-02-02,20.12,4.05594,7.41259,3.21678,18.18,0.0909091,0.153846,0.048951,255.116
'Stratford-Sunnyvale A','Stratford-Santa Clara Middle School Invitational','MS-06',2013-02-23,19.76,4.125,6.25,2.125,18.14,0.1625,0.2375,0.1,219.737
'Stratford-Sunnyvale B','Stratford-Santa Clara Middle School Invitational','MS-11',2014-12-13,21.13,3.25,5.625,3.5,20.43,0.1625,0.23125,0.05625,145.838
'Stratford-Sunnyvale C','Stratford-Santa Clara Middle School Invitational','MS-11',2014-12-13,17.94,3.0,7.0,2.0,17.93,0.11875,0.2625,0.05625,170.558
'Stratford-Sunnyvale D','Stratford-Santa Clara Middle School Invitational','MS-11',2014-12-13,17.82,1.625,5.25,1.75,16.81,0.15625,0.34375,0.0625,112.239
'T. H. Rogers A','TQBA Middle School Kickoff - Houston','MS-11',2014-10-18,26.49,9.22222,5.66667,1.33333,19.52,0.122222,0.1,0.0722222,391.386
'T. H. Rogers A','TQBA Winter Junior Rodeo Challenge','MS-06',2013-02-16,22.22,4.875,5.0,2.0,22.60,0.16875,0.28125,0.0375,171.706
'T. H. Rogers B','TQBA Middle School Kickoff - Houston','MS-11',2014-10-18,19.33,3.125,8.125,1.375,15.91,0.15625,0.1875,0.05625,241.552
'T. H. Rogers C','TQBA Middle School Kickoff - Houston','MS-11',2014-10-18,20.86,2.125,9.5,1.125,15.49,0.13125,0.1625,0.0625,199.427
'T. H. Rogers C','TQBA Middle School Holiday Hoedown','MS-12',2014-12-06,21.27,5.3,7.3,1.5,17.15,0.1,0.16,0.085,303.14
'Thurgood Marshall A','Keith Invitational Tournament','MS-05',2013-01-21,19.61,2.11111,6.44444,2.22222,19.81,0.211111,0.277778,0.0888889,218.109
'Thurgood Marshall B','Keith Invitational Tournament','MS-05',2013-01-21,18.12,2.0,5.66667,0.666667,16.33,0.15,0.355556,0.105556,194.579
'Toledo Islamic A','Solon Middle School Invitational','MS-05',2013-02-17,11.82,0.714286,4.0,0.285714,16.71,0.107143,0.421429,0.0928571,86.8649
'Tome A','Great Valley Middle School Quiz Bowl Tournament','MS-11',2014-12-06,13.43,0.9,6.1,0.2,16.99,0.125,0.345,0.075,126.804
'Triumph A','Detroit Catholic Central Middle School Fall Tournament','MS-11',2014-11-01,15.49,1.125,7.75,1.625,12.31,0.0625,0.30625,0.0125,129.679
'Triumph B','Detroit Catholic Central Middle School Fall Tournament','MS-11',2014-11-01,9.82,0.75,6.125,1.0,11.55,0.05625,0.375,0.03125,129.258
'Triumph C','Detroit Catholic Central Middle School Fall Tournament','MS-11',2014-11-01,9.58,0.5,4.0,0.375,9.96,0.04375,0.33125,0.05625,52.6509
'Triumph D','Detroit Catholic Central Middle School Fall Tournament','MS-11',2014-11-01,4.23,0.25,3.0,0.375,11.26,0.05625,0.46875,0.05,35.7291
'Triumph E','Detroit Catholic Central Middle School Fall Tournament','MS-11',2014-11-01,6.19,0.375,2.25,0.25,10.86,0.0625,0.4,0.05,31.621
'Twenhofel A','Campbell County Middle School Classic','MS-12',2014-10-25,21.92,3.22222,4.88889,1.77778,22.25,0.238889,0.266667,0.0888889,93.4877
'Ursuline A','Charter Middle School Challenge','MS-06',2013-03-02,10.38,0.2,5.0,1.2,13.07,0.1,0.38,0.09,63.922
'Ursuline B','Charter Middle School Challenge','MS-06',2013-03-02,9.63,0.2,5.2,1.0,11.03,0.01,0.4,0.03,71.5736
'Ursuline C','Charter Middle School Challenge','MS-06',2013-03-02,8.85,1.4,3.8,0.6,11.59,0.1,0.39,0.03,74.3375
'Village A','TQBA Middle School Kickoff - Houston','MS-11',2014-10-18,19.48,2.75,6.875,1.125,17.45,0.2,0.2125,0.1,152.355
'Village A','TQBA Middle School Holiday Hoedown','MS-12',2014-12-06,21.89,4.625,7.625,1.875,14.07,0.08125,0.18125,0.0375,329.667
'Village A','TQBA Winter Junior Rodeo Challenge','MS-06',2013-02-16,21.32,2.28571,7.42857,1.14286,19.07,0.157143,0.25,0.0571429,148.705
'Village B','TQBA Middle School Kickoff - Houston','MS-11',2014-10-18,12.94,0.714286,4.14286,1.28571,17.34,0.2,0.371429,0.0714286,68.8309
'Village B','TQBA Middle School Holiday Hoedown','MS-12',2014-12-06,13.56,1.14286,5.28571,1.14286,17.83,0.121429,0.371429,0.142857,103.719
'Village B','TQBA Winter Junior Rodeo Challenge','MS-06',2013-02-16,18.14,0.714286,5.42857,0.571429,18.27,0.135714,0.435714,0.0714286,74.2083
'Village C','TQBA Winter Junior Rodeo Challenge','MS-06',2013-02-16,21.01,4.625,5.25,2.0,22.38,0.225,0.25625,0.05625,188.286
'Village D','TQBA Winter Junior Rodeo Challenge','MS-06',2013-02-16,20.37,3.55556,8.44444,2.22222,16.62,0.0666667,0.211111,0.0833333,240.095
'Wallace A','Keith Invitational Tournament','MS-05',2013-01-21,18.36,1.55556,5.22222,1.0,17.78,0.177778,0.322222,0.0944444,132.292
'Wayzata East B','DeLaSalle Invitational Academic Tournament Of Middle Schools','MS-06',2013-04-06,16.97,1.81818,8.05195,0.519481,15.26,0.025974,0.337662,0.0454545,148.389
'Wayzata East G','DeLaSalle Invitational Academic Tournament Of Middle Schools','MS-06',2013-04-06,19.24,2.8821,7.42358,1.9214,17.56,0.122271,0.270742,0.0829694,185.089
'West Millbrook A','Millbrook Fall Tournament','MS-10',2014-10-25,14.91,1.85714,5.71429,1.71429,17.17,0.1,0.314286,0.128571,110.339
'Westmont Hilltop A','Manheim Township Middle School Academic Challenge','MS-05',2013-01-19,20.66,1.85714,9.0,1.85714,17.34,0.135714,0.214286,0.0857143,181.36
'Westmont Hilltop A','3rd Annual Hilltopper Spring Invitational','MS-06',2013-02-23,18.68,5.34884,7.90698,2.67442,14.68,0.0872093,0.133721,0.0639535,294.02
'Westmont Hilltop A','Rockwood Middle School Invitational','MS-04',2013-04-06,22.18,5.76923,6.28205,3.84615,17.86,0.0512821,0.179487,0.025641,258.53
'Westmont Hilltop B','Manheim Township Middle School Academic Challenge','MS-05',2013-01-19,16.23,1.42857,7.28571,1.0,17.75,0.128571,0.271429,0.0928571,132.801
'Westmont Hilltop B','3rd Annual Hilltopper Spring Invitational','MS-06',2013-02-23,15.31,2.64151,7.42138,1.63522,16.42,0.081761,0.238994,0.0943396,173.609
'Westmont Hilltop B','Rockwood Middle School Invitational','MS-04',2013-04-06,19.93,2.31293,7.89116,0.952381,11.96,0.0408163,0.258503,0.0340136,179.438
'Westmont Hilltop C','Manheim Township Middle School Academic Challenge','MS-05',2013-01-19,13.91,0.571429,6.0,1.0,13.28,0.0571429,0.385714,0.121429,82.3064
'Westmont Hilltop C','3rd Annual Hilltopper Spring Invitational','MS-06',2013-02-23,17.56,2.30769,7.69231,1.53846,11.81,0.147436,0.205128,0.0961538,172.06
'Westmont Hilltop C','Rockwood Middle School Invitational','MS-04',2013-04-06,17.35,2.23684,8.68421,1.18421,14.65,0.105263,0.131579,0.0921053,198.255
'Westmont Hilltop D','Manheim Township Middle School Academic Challenge','MS-05',2013-01-19,13.40,0.857143,5.85714,0.285714,17.74,0.164286,0.392857,0.142857,91.7129
'Westmont Hilltop D','3rd Annual Hilltopper Spring Invitational','MS-06',2013-02-23,14.85,0.136054,8.84354,0.408163,10.92,0.0612245,0.204082,0.0680272,124.004
'Westmont Hilltop D','Rockwood Middle School Invitational','MS-04',2013-04-06,19.89,3.14465,7.92453,0.880503,13.71,0.0691824,0.194969,0.0691824,192.033
'Westmont Hilltop E','Manheim Township Middle School Academic Challenge','MS-05',2013-01-19,9.09,0.0,3.14286,1.0,16.13,0.0642857,0.507143,0.0357143,37.9754
'Westmont Hilltop E','3rd Annual Hilltopper Spring Invitational','MS-06',2013-02-23,11.88,0.875,6.125,1.375,11.77,0.05625,0.33125,0.05,89.0959
'Westmont Hilltop E','Rockwood Middle School Invitational','MS-04',2013-04-06,13.04,0.27972,6.15385,0.699301,16.37,0.104895,0.363636,0.0629371,102.024
'Westmont Hilltop F','3rd Annual Hilltopper Spring Invitational','MS-06',2013-02-23,13.20,1.16129,5.29032,1.03226,16.67,0.154839,0.322581,0.0387097,82.0803
'Westmont Hilltop F','Rockwood Middle School Invitational','MS-04',2013-04-06,13.67,0.675676,5.94595,0.27027,11.38,0.0405405,0.344595,0.0135135,113.391
'Westmont Hilltop G','3rd Annual Hilltopper Spring Invitational','MS-06',2013-02-23,9.62,0.387097,6.45161,0.387097,12.02,0.0193548,0.270968,0.0451613,116.755
'Westmont Hilltop G','Rockwood Middle School Invitational','MS-04',2013-04-06,9.47,0.5,1.875,0.25,12.06,0.06875,0.48125,0.025,34.0285
'Westmont Hilltop H','3rd Annual Hilltopper Spring Invitational','MS-06',2013-02-23,9.25,0.352941,4.35294,0.117647,11.92,0.0529412,0.294118,0.0647059,57.9383
'Westmont Hilltop I','3rd Annual Hilltopper Spring Invitational','MS-06',2013-02-23,8.86,0.236686,3.90533,0.118343,12.79,0.035503,0.35503,0.0295858,54.1899
'Winburn A','Campbell County Middle School Classic','MS-12',2014-10-25,24.92,7.44444,5.88889,1.22222,16.91,0.111111,0.138889,0.0833333,403.605
'Winburn B','Campbell County Middle School Classic','MS-12',2014-10-25,18.31,1.625,6.5,1.25,17.36,0.16875,0.25625,0.15625,157.086
'YES Southeast A','TQBA Winter Junior Rodeo Challenge','MS-06',2013-02-16,8.18,0.142857,1.42857,0.857143,21.04,0.214286,0.585714,0.0785714,12.7256
'YES Southeast B','TQBA Winter Junior Rodeo Challenge','MS-06',2013-02-16,7.50,0.333333,1.66667,0.666667,20.59,0.166667,0.583333,0.0833333,18.3333
